﻿NULL,Type,Documents_Code,Page,FriendlyIndex,Identifier,X,Y,Color,FontSize,TextStyle,
,initials,CA-00004,1,b_1_initials_1,buyer1_[userID]_initials1,92,632,#FF0000,12,,
,initials,CA-00004,1,b_2_initials_1,buyer2_[userID]_initials1,138,632,#FF0000,12,, 
,initials,CA-00004,2,b_1_initials_2,buyer1_[userID]_initials2,93,675,#FF0000,12,,
,initials,CA-00004,2,b_2_initials_2,buyer2_[userID]_initials2,138,675,#FF0000,12,,
,initials,CA-00004,1,s_1_initials_1,seller1_[userID]_initials1,439.41,632.04,#FF0000,12,,
,initials,CA-00004,1,s_2_initials_1,seller2_[userID]_initials1,495.4,632.04,#FF0000,12,,
,initials,CA-00004,2,s_1_initials_2,seller1_[userID]_initials2,441.4,671.26,#FF0000,12,,
,initials,CA-00004,2,s_2_initials_2,seller2_[userID]_initials2,491.96,671.26,#FF0000,12,,
,signature,CA-00004,3,s_1_sig_1,seller1_[userID]_signature,120.96,465.92,#FF0000,12,,
,signature,CA-00004,3,s_2_sig_1,seller2_[userID]_signature,120.96,478.96,#FF0000,12,,
,signature,CA-00004,3,b_1_sig_1,buyer1_[userID]_signature,120.96,491.34,#FF0000,12,,
,signature,CA-00004,3,b_2_sig_1,buyer2_[userID]_signature,120.96,503.05,#FF0000,12,,
,date_signed,CA-00004,3,s_1_sigdate_1,seller1_[userID]_signaturedate,480.93,473.92,#000000,12,,
,date_signed,CA-00004,3,s_2_sigdate_1,seller2_[userID]_signaturedate,480.93,487.96,#000000,12,,
,date_signed,CA-00004,3,b_1_sigdate_1,buyer1_[userID]_signaturedate,480.93,500.34,#000000,12,,
,date_signed,CA-00004,3,b_2_sigdate_1,buyer2_[userID]_signaturedate,480.93,513.05,#000000,12,,
,date_signed,CA-00004,2,ba_1_date_1,page_2_date,459.02,61.75,#000000,12,,
,date_signed,CA-00004,3,ba_1_date_2,page_3_date,456.11,42.93,#000000,12,,
,signature,CA-00004,3,sa_1_sig_1,sellersagent[userID]signature,59.56,534.3,#FF0000,12,,
,date_signed,CA-00004,3,sa_1_sigdate_1,sellersagent[userID]signaturedate,480.93,542.3,#000000,12,,
,signature,CA-00004,3,ba_1_sig_1,buyersagent[userID]signature,59.56,577.75,#FF0000,12,,
,date_signed,CA-00004,3,ba_1_sigdate_1,buyersagent[userID]signaturedate,480.93,585.75,#000000,12,,
,signature,CA-00004,3,ba_1_sig_1,agent[userID]signature,60.66,375.21,#FF0000,12,,
,date_signed,CA-00004,3,ba_1_sigdate_1,agent[userID]signaturedate,442.39,383.21,#000000,12,,
,initials,CA-00005,1,b_1_initials_1,buyer1_[userID]_initials1,92,632,#FF0000,12,,
,initials,CA-00005,1,b_2_initials_1,buyer2_[userID]_initials1,138,632,#FF0000,12,,
,initials,CA-00005,2,b_1_initials_2,buyer1_[userID]_initials2,93,675,#FF0000,12,,
,initials,CA-00005,2,b_2_initials_2,buyer2_[userID]_initials2,138,675,#FF0000,12,,
,initials,CA-00005,1,s_1_initials_1,seller1_[userID]_initials1,439.41,632.04,#FF0000,12,,
,initials,CA-00005,1,s_2_initials_1,seller2_[userID]_initials1,495.4,632.04,#FF0000,12,,
,initials,CA-00005,2,s_1_initials_2,seller1_[userID]_initials2,441.4,671.26,#FF0000,12,,
,initials,CA-00005,2,s_2_initials_2,seller2_[userID]_initials2,491.96,671.26,#FF0000,12,,
,signature,CA-00005,3,s_1_sig_1,seller1_[userID]_signature,120.96,465.92,#FF0000,12,,
,signature,CA-00005,3,s_2_sig_1,seller2_[userID]_signature,120.96,478.96,#FF0000,12,,
,signature,CA-00005,3,b_1_sig_1,buyer1_[userID]_signature,120.96,491.34,#FF0000,12,,
,signature,CA-00005,3,b_2_sig_1,buyer2_[userID]_signature,120.96,503.05,#FF0000,12,,
,date_signed,CA-00005,3,s_1_sigdate_1,seller1_[userID]_signaturedate,480.93,473.92,#000000,12,,
,date_signed,CA-00005,3,s_2_sigdate_1,seller2_[userID]_signaturedate,480.93,487.96,#000000,12,,
,date_signed,CA-00005,3,b_1_sigdate_1,buyer1_[userID]_signaturedate,480.93,500.34,#000000,12,,
,date_signed,CA-00005,3,b_2_sigdate_1,buyer2_[userID]_signaturedate,480.93,513.05,#000000,12,,
,date_signed,CA-00005,2,sa_1_date_1,page_2_date,459.02,61.75,#000000,12,,
,date_signed,CA-00005,3,sa_1_date_2,page_3_date,456.11,42.93,#000000,12,,
,signature,CA-00005,3,sa_1_sig_1,sellersagent[userID]signature,59.56,534.3,#FF0000,12,,
,date_signed,CA-00005,3,sa_1_sigdate_1,sellersagent[userID]signaturedate,480.93,542.3,#000000,12,,
,signature,CA-00005,3,ba_1_sig_1,buyersagent[userID]signature,59.56,577.75,#FF0000,12,,
,date_signed,CA-00005,3,ba_1_sigdate_1,buyersagent[userID]signaturedate,480.93,585.75,#000000,12,,
,signature,CA-00005,3,sa_1_sig_1,agent[userID]signature,60.66,375.21,#FF0000,12,,
,date_signed,CA-00005,3,sa_1_sigdate_1,agent[userID]signaturedate,442.39,383.21,#000000,12,,
,signature,CA-00010,1,s_1_sig_1,seller1_[userID]_signature_1,70.08,527.91,#FF0000,12,,
,signature,CA-00010,1,s_2_sig_1,seller2_[userID]_signature_1,273.31,527.91,#FF0000,12,,
,signature,CA-00010,1,b_1_sig_1,buyer1_[userID]_signature_1,70.08,600,#FF0000,12,,
,signature,CA-00010,1,b_1_sig_1,buyer2_[userID]_signature_1,273.31,600,#FF0000,12,,
,date_signed,CA-00010,1,s_2_sigdate_1,seller2_[userID]_sigdate_1,486.76,538.41,#000000,12,,
,date_signed,CA-00010,1,b_2_sigdate_1,buyer2_[userID]_sigdate_1,486.76,610.5,#000000,12,,
,initials,CA-00041,1,b_1_initials_1,buyer1_[userID]_initials_1,93.92,657.25,#FF0000,12,,
,initials,CA-00041,1,s_1_initials_1,seller1_[userID]_initials_1,478.35,657.25,#FF0000,12,,
,initials,CA-00041,1,b_2_initials_1,buyer2_[userID]_initials_1,143.57,657.25,#FF0000,12,,
,initials,CA-00041,1,s_2_initials_1,seller2_[userID]_initials_1,523.5,657.25,#FF0000,12,,
,initials,CA-00041,2,b_1_initials_2,buyer1_[userID]_initials_2,97.12,699.8,#FF0000,12,,
,initials,CA-00041,2,s_1_initials_2,seller1_[userID]_initials_2,424.48,699.8,#FF0000,12,,
,initials,CA-00041,2,b_2_initials_2,buyer2_[userID]_initials_2,147.07,699.8,#FF0000,12,,
,initials,CA-00041,2,s_2_initials_2,seller2_[userID]_initials_2,472.84,699.8,#FF0000,12,,
,initials,CA-00041,3,b_1_initials_3,buyer1_[userID]_initials_3,101.12,691.31,#FF0000,12,,
,initials,CA-00041,3,s_1_initials_3,seller1_[userID]_initials_3,426.48,691.31,#FF0000,12,,
,initials,CA-00041,3,b_2_initials_3,buyer2_[userID]_initials_3,149.77,691.31,#FF0000,12,,
,initials,CA-00041,3,s_2_initials_3,seller2_[userID]_initials_3,475.54,691.31,#FF0000,12,,
,signature,CA-00041,4,s_1_sig_1,seller1_[userID]_signature_1,86.89,573.11,#FF0000,12,,
,signature,CA-00041,4,s_2_sig_1,seller2_[userID]_signature_1,86.89,583.42,#FF0000,12,,
,signature,CA-00041,4,b_1_sig_1,buyer1_[userID]_signature_1,86.89,619.76,#FF0000,12,,
,signature,CA-00041,4,b_2_sig_1,buyer2_[userID]_signature_1,86.89,631.28,#FF0000,12,,
,date_signed,CA-00041,4,s_1_sigdate_1,seller1_[userID]_signaturedate_1,473.96,583.11,#000000,12,,
,date_signed,CA-00041,4,s_2_sigdate_1,seller2_[userID]_signaturedate_1,473.96,593.42,#000000,12,,
,date_signed,CA-00041,4,b_1_sigdate_1,buyer1_[userID]_signaturedate_1,473.96,629.76,#000000,12,,
,date_signed,CA-00041,4,b_2_sigdate_1,buyer2_[userID]_signaturedate_1,473.96,639.28,#000000,12,,
,date_signed,CA-00041,2,s_1_date_1,page_2_date,480.74,27.23,#000000,12,,
,date_signed,CA-00041,3,s_1_date_2,page_3_date,482.85,37.05,#000000,12,,
,date_signed,CA-00041,4,s_1_date_3,page_4_date,482.85,32.07,#000000,12,,
,initials,CA-00045,1,b_1_initials_1,buyer1_[userID]_initials_1,102.62,670.47,#FF0000,12,,
,initials,CA-00045,1,b_2_initials_1,buyer2_[userID]_initials_1,150.17,670.47,#FF0000,12,,
,initials,CA-00045,1,s_1_initials_1,seller1_[userID]_initials_1,425.99,670.47,#FF0000,12,,
,initials,CA-00045,1,s_2_initials_1,seller2_[userID]_initials_1,474.64,670.47,#FF0000,12,,
,date_signed,CA-00045,2,s_1_date_1,page_2_date,490.56,26.33,#000000,12,,
,initials,CA-00045,2,b_1_initials_2,buyer1_[userID]_initials_2,105.22,689.32,#FF0000,12,,
,initials,CA-00045,2,b_2_initials_2,buyer2_[userID]_initials_2,152.17,689.31,#FF0000,12,,
,initials,CA-00045,2,s_1_initials_2,seller1_[userID]_initials_2,428.99,689.31,#FF0000,12,,
,initials,CA-00045,2,s_2_initials_2,seller2_[userID]_initials_2,475.94,689.31,#FF0000,12,,
,date_signed,CA-00045,3,s_1_date_2,page_3_date,485.65,26.15,#000000,12,,
,signature,CA-00045,3,s_1_sig_1,seller1_[userID]_signature_1,99.51,45.19,#FF0000,12,,
,signature,CA-00045,3,s_2_sig_1,seller2_[userID]_signature_1,99.51,65.41,#FF0000,12,,
,date_signed,CA-00045,3,s_1_sigdate_1,seller1_[userID]_signaturedate_1,464.63,52.19,#000000,12,,
,date_signed,CA-00045,3,s_2_sigdate_1,seller2_[userID]_signaturedate_1,464.63,71.41,#000000,12,,
,signature,CA-00045,3,sa_1_sig_1,sellersagent1_[userID]_signature_1,342.99,216.88,#FF0000,12,,
,date_signed,CA-00045,3,sa_1_sigdate_1,sellersagent1_[userID]_signaturedate_1,503.77,222.88,#000000,12,,
,signature,CA-00045,3,s_1_sig_2,seller1_[userID]_signature_2,79.19,465.16,#000000,12,,
,signature,CA-00045,3,s_2_sig_2,seller2_[userID]_signature_2,79.19,483.38,#000000,12,,
,date_signed,CA-00045,3,s_1_sigdate_2,seller1_[userID]_signaturedate_2,257.49,476.16,#000000,8,,
,date_signed,CA-00045,3,s_1_sigdate_2,seller2_[userID]_signaturedate_2,257.49,494.38,#000000,8,,
,signature,CA-00045,3,b_1_sig_1,buyer1_[userID]_signature_1,337.08,465.16,#FF0000,12,,
,signature,CA-00045,3,b_2_sig_1,buyer2_[userID]_signature_1,337.08,483.38,#FF0000,12,,
,date_signed,CA-00045,3,b_1_sigdate_1,buyer1_[userID]_signaturedate_1,515.19,476.16,#000000,8,,
,date_signed,CA-00045,3,b_2_sigdate_1,buyer2_[userID]_signaturedate_1,515.19,492.38,#000000,8,,
,signature,CA-00045,3,sa_1_sig_2,sellersagent1_[userID]_signature_2,358.8,510.01,#FF0000,12,,
,date_signed,CA-00045,3,sa_1_sigdate_2,sellersagent1_[userID]_signaturedate_2,513.49,519.01,#000000,8,,
,signature,CA-00067,3,s_1_sig_1,seller1_[userID]_signature_1,104.42,500.22,#FF0000,12,,
,signature,CA-00067,3,s_2_sig_1,seller2_[userID]_signature_2,104.42,530.25,#FF0000,12,,
,date_signed,CA-00067,3,s_1_sigdate_1,seller1_[userID]_signaturedate_1,485.85,512.22,#000000,12,,
,date_signed,CA-00067,3,s_2_sigdate_1,seller2_[userID]_signaturedate_1,485.85,540.25,#000000,12,,
,date_signed,CA-00067,1,s_1_date_1,page_1_date,485.85,101.25,#000000,12,,
