Documents_Code,State,btc,ba,b,stc,sa,s,e,l,t
*,CA,r|e|s|u,r|e|s|u,r|e|s|u,r|e|s|u,r|e|s|u,r|e|s|u,r|e|s|u,r|e|s|u,r|e|s|u
CA-00001,CA,r,r,r,r|u,r|u|s,r|u|s,,,
CA-00002,CA,r,r,r,r|u,r|u|s,r|u|s,,,
CA-00003,CA,r|u,r|u|s,r|u|s,r,r,r,,,
CA-00004,CA,r|u,r|e|u|s,r|u|s,r|u,r|u|s,r|u|s,,,
CA-00005,CA,r|u,r|u|s,r|u|s,r|u,r|e|u|s,r|u|s,,,
CA-00006,CA,r|u,r|u,r|s|u,r,r,r,,,
CA-00007,CA,r|u,r|u,r|u,r|u,r|u,r|u,,,
CA-00008,CA,r|u,r|u,,r|u,r|u,,,,
CA-00009,CA,,,,,,,,,
CA-00010,CA,r|u,r|u|s,r|u|s,r|u,r|u|s,r|u|s|e,,,
CA-00011,CA,r|u,r|u,r|u,r|u,r|u,r|u,r|u,,
CA-00012,CA,r|e|u,r|e|u|s,r|e|u|s,r|e|u,r|e|u|s,r|e|u|s,,,
CA-00013,CA,r|u,r|u|s,r|u|s,r|u,r|u|s,r|u|s,,,
CA-00014,CA,r|u,r|u,r|s|u,r|u,r|u,r|e|u|s,,,
CA-00015,CA,,,,r|u,r|u|s,r|u|s,,,
CA-00016,CA,r|u,r|u,r|u,r|u,r|u,r|u,,,
CA-00017,CA,r|u,r|u|s,r|u|s,r|u,r|e|u|s,r|e|u|s,,,
CA-00018,CA,r|e|u,r|e|u,r|e|u|s,r|e|u,r|e|u,r|e|u|s,,,
CA-00019,CA,r|u,r|e|u,r|e|u|s,r|e|u,r|e|u,r|e|u|s,,,
CA-00020,CA,r|u,r|e|u|s,r|e|u|s,r|e|u,r|e|u|s,r|e|u|s,,,
CA-00021,CA,,,,r|e|u,r|e|u|s,r|e|u|s,,,
CA-00022,CA,r|u,r|u|s,r|u|s,r|u,r|u|s,r|u|s,,,
CA-00023,CA,r|u,r|u|s,r|u|s,r|e|u,r|e|u|s,r|e|u|s,,,
CA-00024,CA,r|u,r|u,,r|u,r|u,,,,
CA-00025,CA,r|u,r|u,r|u,r|u,r|u,r|u,,,
CA-00026,CA,r|u,r|u|s,r|u|s,r|u,r|u|s,r|u|s,,,
CA-00027,CA,r|u,r|u,r|u|s,r|u,r|u,r|u|s,,,
CA-00028,CA,r|u,r|u|e|s,r|u|e|s,r|u,r|u|e|s,r|u|e|s,,,
CA-00029,CA,r|u,r|u|s,r|u|s,r|u,r|u|s,r|u|s,,,
CA-00030,CA,r|u,r|u,r|u,r|u,r|u,r|u,,,
CA-00031,CA,r|u,r|u,r|u,r|u,r|u,r|u,,,
CA-00032,CA,r|u|e,r|u|e|s,r|u|e|s,r|u,r|u,r|u,,,
CA-00033,CA,r|u,r|u,r|u,r|u|e,r|u|e|s,r|u|e|s,,,
CA-00034,CA,r|u,r|u,r|u|s,r|u,r|u,r|u|s,,,
CA-00035,CA,,,,r|u,r|u|e|s,r|u|e|s,,,
CA-00036,CA,,,,r|u,r|u|e|s,r|u|e|s,,,
CA-00037,CA,,,,r|u,r|u|e|s,r|u|e|s,,,
CA-00038,CA,r|u,r|u|e|s,r|u|e|s,r|u,r|u|s,r|u|s,,,
CA-00039,CA,r|u,r|u|s,r|u|s,r|u,r|u|s,r|u|s,,,
CA-00040,CA,,,,r|u,r|u|e|s,r|u|e|s,,,
CA-00041,CA,r|u,r|u,r|u|s,r|u,r|u,r|u|e|s,,,
CA-00042,CA,r|u,r|u,r|u|s,r|u,r|u,r|u|s,,,
CA-00043,CA,r|u,r|u|s,r|u|s,r|u,r|u|s,r|u|s,,,
CA-00044,CA,r|u,r|u,r|u|s,r|u,r|u,r|u|s,,,
CA-00045,CA,r|u,r|u|s,r|u|s,r|u,r|u|s,r|u|e|s,,,
CA-00046,CA,r|u,r|u,r|u,r|u,r|u,r|u,,,
CA-00047,CA,r|u,r|u,r|u|s,r|u,r|u,r|u|s,,,
CA-00048,CA,,,,r|u,r|u|e|s,r|u|e|s,,,
CA-00049,CA,r|u,r|u|e|s,r|u|e|s,r|u,r|u|s,r|u|s,,,
CA-00050,CA,r|u,r|u,r|u|s,r|u,r|u,r|u|s,,,
CA-00051,CA,r|u,r|u,r|u|s,r|u,r|u,r|u|s,,,
CA-00052,CA,r|u,r|u,r|u|s,r|u,r|u,r|u|s,,,
CA-00053,CA,r|u,r|u,r|u|s,r|u,r|u,r|u|s,,,
CA-00054,CA,r|u,r|u,r|u|s,r|u,r|u,r|u|s,,,
CA-00055,CA,r|u,r|u|e|s,r|u|e|s,r|u,r|u|s,r|u|s,,,
CA-00056,CA,r|u,r|u,r|u|s,r|u,r|u|e|s,r|u|e|s,,,
CA-00057,CA,r|u,r|u,r|u|s,r|u,r|u|e|s,r|u|e|s,,,
CA-00058,CA,r|u,r|u,r|u,r|u,r|u,r|u,,,
CA-00059,CA,r|u,r|u,r|u|s,r|u,r|u,r|u,,,
CA-00060,CA,r|u,r|u|s,r|u|e|s,r|u,r|u|s,r|u|s,,,
CA-00061,CA,r|u,r|u|s,r|u|s,r|u,r|u|s,r|u|e|s,,,
CA-00062,CA,r|u,r|u|s,r|u|e|s,r|u,r|u|s,r|u|s,,,
CA-00063,CA,r|u|e,r|u|e|s,r|u|e|s,r|u|e,r|u|e|s,r|u|e|s,,,
CA-00064,CA,r|u,r|u,r|u|s,r|u,r|u,r|u,,,
CA-00065,CA,r|u,r|u,r|u,r|u,r|u,r|u,,,
CA-00066,CA,r|e|s|u,r|e|s|u,r|e|s|u,r|e|s|u,r|e|s|u,r|e|s|u,r|e|s|u,r|e|s|u,r|e|s|u
CA-00067,CA,r|u,r|u|s,r|u|s,r|u,r|u|s,r|u|e|s,,,
CA-00068,CA,r|u,r|u|s,r|u|s,r|u,r|u|s,r|u|s,,,
CA-00069,CA,r|u,r|u|s,r|u|s,r|e|u,r|e|u|s,r|e|u|s,,,
CA-00070,CA,r|u,r|u,,r|u,r|u,,,,
CA-00071,CA,r|u,r|u|s,r|u|s,r|u,r|u|s,r|u|s,,,
CA-00073,CA,r|u,r|u,r|u,r|u,r|u,r|u,,,
CA-00074,CA,r|u,r|u,r|u|s,r|u,r|u,r|u|s,,,
CA-00075,CA,r|u,r|u|s,r|u|e|s,r|u,r|u|s,r|u|s,,,
CA-00076,CA,r|u,r|u,r|s|u,r|u,r|u,r|e|u|s,,,
CA-00077,CA,r|u,r|u,r|u|s,r|u,r|u,r|u|s,,,
CA-00078,CA,r|u,r|u,,r|u,r|u,,,,
CA-00079,CA,r|s,r|e|s|u,r|s,,,,,,
TX-00001,TX,r|u,r|u,r|u|s,r|u,r|u,r|u|e|s,,,
TX-00002,TX,,,,r|u,r|u|e|s,r|u|e|s,,,
TX-00003,TX,,,,r|u,r|u|e|s,r|u|e|s,,,
TX-00004,TX,,,,r|u,r|u|e|s,r|u|e|s,,,
TX-00005,TX,r|u,r|u|s,r|u|s,r|u,r|u|s,r|u|s,,,
TX-00006,TX,r|u,r|u,r|u|s,r|u,r|u,r|u|s,,,
TX-00007,TX,,,,r|u,r|u|e|s,r|u|e|s,,,
TX-00008,TX,,,,r|u,r|u|e|s,r|u|e|s,,,
TX-00009,TX,r|u,r|u|s,r|u|s,r|u,r|u|s,r|u|s,,,
TX-00010,TX,r|u,r|u|s,r|u|s,r|u,r|u|s,r|u|s,,,
TX-00011,TX,r|u,r|u|s,r|u|s,r|u,r|u|s,r|u|s,,,
TX-00012,TX,r|u,r|u|s,r|u|s,r|u,r|u|s,r|u|s,,,
TX-00013,TX,r|u,r|u|s,r|u|s,r|u,r|u|s,r|u|s,,,
TX-00014,TX,r|u,r|u|s,r|u|s,r|u,r|u|s,r|u|s,,,
TX-00015,TX,r|u,r|u|s,r|u|s,r|u,r|u|s,r|u|s,,,
TX-00016,TX,r|u,r|u|s,r|u|s,r|u,r|u|s,r|u|s,,,
TX-00017,TX,r|u,r|u|s,r|u|s,r|u,r|u|s,r|u|s,,,
TX-00018,TX,r|u,r|u|s,r|u|s,r|u,r|u|s,r|u|s,,,
TX-00019,TX,r|u,r|u|s,r|u|s,r|u,r|u|s,r|u|s,,,
TX-00020,TX,r|u,r|u|s,r|u|s,r|u,r|u|s,r|u|s,,,
TX-00021,TX,r|u,r|u|s,r|u|s,r|u,r|u|s,r|u|s,,,
TX-00022,TX,r|u,r|u|s,r|u|s,r|u,r|u|s,r|u|s,,,
TX-00023,TX,r|u,r|u|s,r|u|s,r|u,r|u|s,r|u|s,,,
TX-00024,TX,r|u,r|u|s,r|u|s,r|u,r|u|s,r|u|s,,,
TX-00025,TX,r|u,r|u|s,r|u|s,r|u,r|u|s,r|u|s,,,
TX-00026,TX,r|u,r|u|s,r|u|s,r|u,r|u|s,r|u|s,,,
TX-00027,TX,r|u,r|u|s,r|u|s,r|u,r|u|s,r|u|s,,,
TX-00028,TX,r|u,r|u|s,r|u|s,r|u,r|u|s,r|u|s,,,
TX-00029,TX,r|u,r|u|s,r|u|s,r|u,r|u|s,r|u|s,,,
TX-00030,TX,r|u,r|u|s,r|u|s,r|u,r|u|s,r|u|s,,,
TX-00031,TX,r|u,r|u|s,r|u|s,r|u,r|u|s,r|u|s,,,
TX-00032,TX,r|u,r|u|s,r|u|s,r|u,r|u|s,r|u|s,,,
TX-00033,TX,r|u,r|u|s,r|u|s,r|u,r|u|s,r|u|s,,,
TX-00034,TX,r|u,r|u|s,r|u|s,r|u,r|u|s,r|u|s,,,
TX-00035,TX,r|u,r|u|s,r|u|s,r|u,r|u|s,r|u|s,,,
TX-00036,TX,r|u,r|u|s,r|u|s,r|u,r|u|s,r|u|s,,,
TX-00037,TX,r|u,r|u|s,r|u|s,r|u,r|u|s,r|u|s,,,
TX-00038,TX,r|u,r|u|s,r|u|s,r|u,r|u|s,r|u|s,,,
TX-00039,TX,r|u,r|u|s,r|u|s,r|u,r|u|s,r|u|s,,,
TX-00040,TX,r|u,r|u|s,r|u|s,r|u,r|u|s,r|u|s,,,
TX-00041,TX,r|u,r|u|s,r|u|s,r|u,r|u|s,r|u|s,,,
TX-00042,TX,r|u,r|u|s,r|u|s,r|u,r|u|s,r|u|s,,,
TX-00043,TX,r|u,r|u|s,r|u|s,r|u,r|u|s,r|u|s,,,
TX-00044,TX,r|u,r|u|s,r|u|s,r|u,r|u|s,r|u|s,,,
TX-00045,TX,r|u,r|u|s,r|u|s,r|u,r|u|s,r|u|s,,,
TX-00046,TX,r|u,r|u|s,r|u|s,r|u,r|u|s,r|u|s,,,
TX-00047,TX,r|e|s|u,r|e|s|u,r|e|s|u,r|e|s|u,r|e|s|u,r|e|s|u,r|e|s|u,r|e|s|u,r|e|s|u
TX-00048,TX,r|e|s|u,r|e|s|u,r|e|s|u,r|e|s|u,r|e|s|u,r|e|s|u,r|e|s|u,r|e|s|u,r|e|s|u
TX-00049,TX,r|e|s|u,r|e|s|u,r|e|s|u,r|e|s|u,r|e|s|u,r|e|s|u,r|e|s|u,r|e|s|u,r|e|s|u
TX-00050,TX,r|u,r|u|s,r|u|s,r|u,r|u|s,r|u|s|e,,,
TX-00051,TX,r|e|u,r|e|u,r|e|u|s,r|e|u,r|e|u,r|e|u|s,,,
TX-00052,TX,r|u,r|u|s,r|u|s,r|u,r|u|s,r|u|s,,,
TX-00053,TX,r|u,r|u,r|u|s,r|u,r|u,r|u|s,,,
TX-00054,TX,r|u,r|u,r|u|s,,,,,,
TX-00055,TX,,,,r|u,r|u|e|s,r|u|e|s,,,
TX-00056,TX,r|e|s|u,r|e|s|u,r|e|s|u,r|e|s|u,r|e|s|u,r|e|s|u,r|e|s|u,r|e|s|u,r|e|s|u
TX-00057,TX,r|u,r|u,r|u|s,r|u,r|u,r|u|s,,,
TX-00058,TX,r|u,r|u,r|u|s,r|u,r|u,r|u|s,,,
TX-00059,TX,r|u,r|u,r|u|s,r|u,r|u,r|u|s,,,
TX-00060,TX,r|e|s|u,r|e|s|u,r|e|s|u,r|e|s|u,r|e|s|u,r|e|s|u,r|e|s|u,r|e|s|u,r|e|s|u
TX-00061,TX,r|u,r|u,r|u|s,r|u,r|u,r|u|s,,,
TX-00062,TX,r|u,r|u,r|u|s,r|u,r|u,r|u|s,,,
TX-00063,TX,r|u,r|u,r|u|s,r|u,r|u,r|u|s,,,
TX-00064,TX,r|u,r|u,r|u|s,r|u,r|u,r|u|s,,,
TX-00065,TX,r|e|s|u,r|e|s|u,r|e|s|u,r|e|s|u,r|e|s|u,r|e|s|u,r|e|s|u,r|e|s|u,r|e|s|u
TX-00066,TX,r|u,r|u|s,r|u|s,r|u,r|u|s,r|u|s|e,,,
TX-00067,TX,r|u,r|u|s,r|u|s,r|u,r|u|s,r|u|s|e,,,
TX-00068,TX,r|u,r|u|s,r|u|s,r|u,r|u|s,r|u|s,,,
TX-00069,TX,r|u,r|u|s,r|u|s,r|u,r|u|s,r|u|s|e,,,
TX-00070,TX,r|u,r|u|s,r|u|s,r|u,r|u|s,r|u|s|e,,,
