Code,State,Category,Order,TaskSets_Value,Timeline_ID,Timeline_Code,DateOffset,Description
CA-000002,CA,ah,1,btc-ah,1,aoo,0,user-defined
CA-000003,CA,oe,1.01,btc,1,aoo,0,Get a signed TC Contract
CA-000004,CA,oe,1.02,btc,1,aoo,0,Create a folder to store all files for the transaction
CA-000005,CA,acpt,1.03,btc,1,aoo,0,Review Offer for errors or issues
CA-000006,CA,acpt,1.04,btc,1,aoo,1,Send an intro email to buyer including timelines
CA-000007,CA,acpt,1.05,btc,1,aoo,1,Send an intro email to listing agent including timelines
CA-000008,CA,acpt,1.06,btc,1,aoo,1,Send an intro to escrow including timelines
CA-000009,CA,acpt,1.07,btc,1,aoo,1,Send an intro to lender including timelines
CA-000010,CA,insp,1.08,btc,1,aoo,3,Remind buyer to schedule a home inspection and termite
CA-000011,CA,insp,1.09,btc,1,aoo,3,"Remind buyer's agent to schedule a home inspection, termite, and complete AVID"
CA-000012,CA,dis,1.1,btc,5,dis-to-b,0,Request disclosures from seller
CA-000013,CA,dep,1.11,btc,4,deposit,0,Follow-up with escrow on third business day to ensure EMD was received
CA-000014,CA,dis,1.12,btc,5,dis-to-b,1,"Review disclosures for signatures, explanations, and dates"
CA-000015,CA,dis,1.13,btc,5,dis-to-b,1,Send disclosures to buyer for review and signature (with Homeowner's Guide booklet)
CA-000016,CA,apr,1.14,btc,1,aoo,7,Remind the buyer's agent to schedule appraisal
CA-000017,CA,coe,1.15,btc,4,deposit,4,Follow-up with escrow to see if they have ordered city reports
CA-000018,CA,lf,1.16,btc,4,deposit,3,Follow-up with escrow to see if escrow instructions have been received and signed by both parties
CA-000019,CA,insp,1.17,btc,8,lc,1,Ask Buyer's Agent about requests for repairs
CA-000020,CA,roc,1.18,btc,7,ic,1,Ask Buyer's Agent to remove inspection contingency
CA-000021,CA,lf,1.19,btc,4,deposit,3,Have commission instructions signed and submitted to escrow
CA-000022,CA,coe,1.2,btc,8,lc,1,Check to see if home warranty has been ordered
CA-000023,CA,coe,1.21,btc,3,coe,-10,Audit file
CA-000024,CA,coe,1.22,btc,3,coe,-7,Send buyer and buyer's agent a pre-closing email
CA-000025,CA,coe,1.23,btc,3,coe,-7,Send information to escrow with required closing items
CA-000026,CA,coe,1.24,btc,3,coe,2,Send completed file to agents
CA-000027,CA,coe,1.25,btc,3,coe,0,Send congratulatory email to all parties
CA-000028,CA,insp,1.26,btc,7,ic,-3,Make Requests for Repair
CA-000029,CA,coe,1.27,btc,4,deposit,3,Send Commission Instructions to Escrow
CA-000030,CA,ah,2,stc-ah,1,aoo,0,user-defined
CA-000031,CA,hl,2.01,stc,1,aoo,0,"If needed, type up listing agreement"
CA-000032,CA,hl,2.02,stc,1,aoo,0,Order photo shoot
CA-000033,CA,hl,2.03,stc,1,aoo,0,Input photos and listing details into the MLS
CA-000034,CA,oe,2.04,stc,1,aoo,0,Get a signed TC Contract
CA-000035,CA,oe,2.05,stc,1,aoo,0,Create a folder to store all files for the transaction
CA-000036,CA,oe,2.06,stc,1,aoo,0,Contact escrow to open escrow including intro email and ask them to order HOA
CA-000037,CA,acpt,2.07,stc,1,aoo,1,Send an intro email to seller including timelines
CA-000038,CA,acpt,2.08,stc,1,aoo,1,Send an intro email to buyer's agent including timelines
CA-000039,CA,dis,2.09,stc,5,dis-to-b,-3,Prepare disclosures for signature
CA-000040,CA,dis,2.1,stc,2,oe,1,Order NHD
CA-000041,CA,dis,2.11,stc,2,oe,4,Follow-up to get disclosures
CA-000042,CA,dis,2.12,stc,5,dis-to-b,-1,"Review sellers disclosures for dates, signatures, and completeness"
CA-000043,CA,dis,2.13,stc,5,dis-to-b,0,Send out disclosures to buyer's agent and request AVID
CA-000044,CA,dis,2.14,stc,2,oe,4,Request AVID from Both Agents
CA-000045,CA,dep,2.15,stc,4,deposit,0,Follow-up with escrow on third business day to ensure EMD was received
CA-000046,CA,insp,2.16,stc,1,aoo,4,Ask Buyer's Agent to confirm inspection dates
CA-000047,CA,insp,2.17,stc,2,oe,7,Confirm escrow has ordered HOA docs
CA-000048,CA,dis,2.18,stc,6,dis-from-b,0,Follow-up with buyer's agent to request signed disclosures
CA-000049,CA,dis,2.19,stc,6,dis-from-b,1,Review disclosures for signatures
CA-000050,CA,dis,2.2,stc,5,dis-to-b,1,Send Homeowner's Guide booklet to seller and get signed receipt
CA-000051,CA,apr,2.21,stc,1,aoo,10,Email buyer's agent to ask about status of appraisal
CA-000052,CA,coe,2.22,stc,4,deposit,4,Checking with escrow to see if they have ordered city reports
CA-000053,CA,lf,2.23,stc,4,deposit,3,Have commission instructions signed and submitted to escrow
CA-000054,CA,coe,2.24,stc,8,lc,1,Check to see if home warranty has been ordered
CA-000055,CA,coe,2.25,stc,3,coe,-10,Audit file
CA-000056,CA,coe,2.26,stc,3,coe,-7,Send information to escrow with required closing items
CA-000057,CA,coe,2.27,stc,3,coe,2,Send completed file to agents
CA-000058,CA,coe,2.28,stc,3,coe,0,Send congratulatory email to all parties
CA-000121,CA,ah,3,ba-ah,1,aoo,0,user-defined
CA-000060,CA,oe,3.01,ba,1,aoo,-5,Get a signed representation agreement
CA-000061,CA,oe,3.02,ba,1,aoo,0,Get a signed TC Contract
CA-000062,CA,oe,3.03,ba,1,aoo,0,Create a folder to store all files for the transaction
CA-000063,CA,acpt,3.04,ba,1,aoo,0,Review Offer for errors or issues
CA-000064,CA,acpt,3.05,ba,1,aoo,1,Send new transaction email to buyer
CA-000065,CA,acpt,3.06,ba,1,aoo,1,Send an intro email to listing agent including timelines
CA-000066,CA,acpt,3.07,ba,1,aoo,1,Send an intro to escrow including timelines
CA-000067,CA,acpt,3.08,ba,1,aoo,1,Send an intro to lender including timelines
CA-000068,CA,insp,3.09,ba,1,aoo,3,Have buyer choose a home inspection company
CA-000069,CA,insp,3.1,ba,1,aoo,3,Have buyer choose a termite inspection company
CA-000070,CA,insp,3.11,ba,1,aoo,3,Schedule a home inspection
CA-000071,CA,insp,3.12,ba,1,aoo,3,Schedule termite inspection
CA-000072,CA,dis,3.13,ba,5,dis-to-b,0,Request disclosures from seller
CA-000073,CA,dep,3.14,ba,4,deposit,0,Confirm escrow received EMD
CA-000074,CA,dis,3.15,ba,6,dis-from-b,0,Complete AVID
CA-000075,CA,dis,3.16,ba,5,dis-to-b,1,"Review disclosures for signatures, explanations, and dates"
CA-000076,CA,dis,3.17,ba,5,dis-to-b,1,Send disclosures to buyer with Homeowner
CA-000077,CA,apr,3.18,ba,1,aoo,7,Confirm lender has scheduled the appraisal
CA-000078,CA,coe,3.19,ba,4,deposit,4,Confirm escrow has ordered city reports
CA-000079,CA,lf,3.2,ba,4,deposit,3,Confirm escrow instructions have been received and signed by both parties
CA-000081,CA,roc,3.22,ba,7,ic,0,Remove inspection contingency
CA-000082,CA,lf,3.23,ba,4,deposit,3,Submit commission instructions to escrow
CA-000083,CA,insp,3.24,ba,3,coe,-7,Final Walk Through
CA-000084,CA,coe,3.25,ba,8,lc,1,Check to see if home warranty has been ordered
CA-000085,CA,coe,3.26,ba,3,coe,-10,Audit file
CA-000087,CA,coe,3.28,ba,3,coe,-7,Send information to escrow with required closing items
CA-000089,CA,coe,3.3,ba,3,coe,0,Send congratulatory email to all parties
CA-000090,CA,insp,3.31,ba,7,ic,-3,Make Requests for Repair
CA-000164,CA,ah,4,sa-ah,1,aoo,0,user-defined
CA-000093,CA,hl,4.01,sa,1,aoo,0,Complete Listing Agreement
CA-000094,CA,hl,4.02,sa,1,aoo,0,Order photo shoot
CA-000095,CA,hl,4.03,sa,1,aoo,0,Add property in MLS
CA-000096,CA,oe,4.04,sa,1,aoo,0,Get a signed TC Contract
CA-000097,CA,oe,4.05,sa,1,aoo,0,Create a folder to store all files for the transaction
CA-000098,CA,oe,4.06,sa,1,aoo,0,Open escrow and have them order HOA
CA-000099,CA,acpt,4.07,sa,1,aoo,1,Send new transaction email to seller
CA-000100,CA,acpt,4.08,sa,1,aoo,1,Send an intro email to buyer's agent including timelines
CA-000101,CA,dis,4.09,sa,5,dis-to-b,-3,Prepare disclosures for signature
CA-000102,CA,dis,4.1,sa,2,oe,1,Order NHD
CA-000103,CA,dis,4.11,sa,5,dis-to-b,-2,Ask seller to complete TDS and SPQ
CA-000104,CA,dis,4.12,sa,5,dis-to-b,-1,"Review sellers disclosures for dates, signatures, and completeness"
CA-000105,CA,dis,4.13,sa,5,dis-to-b,0,"Send TDS, SPQ, and AVID to buyer"
CA-000106,CA,dis,4.14,sa,2,oe,4,Complete AVID
CA-000107,CA,dep,4.15,sa,4,deposit,0,Confirm escrow received EMD
CA-000108,CA,insp,4.16,sa,1,aoo,6,Confirm inspection dates with buyer
CA-000109,CA,insp,4.17,sa,2,oe,7,Confirm escrow has ordered HOA docs
CA-000110,CA,dis,4.18,sa,6,dis-from-b,0,Request signed disclosures from buyer
CA-000111,CA,dis,4.19,sa,6,dis-from-b,1,Review disclosures for signatures
CA-000112,CA,dis,4.2,sa,5,dis-to-b,1,Send Homeowner
CA-000113,CA,apr,4.21,sa,1,aoo,7,Ask Buyer's Agent about status of appraisal
CA-000114,CA,coe,4.22,sa,4,deposit,4,Confirm escrow has ordered city reports
CA-000115,CA,lf,4.23,sa,4,deposit,3,Have commission instructions signed and submitted to escrow
CA-000116,CA,coe,4.24,sa,8,lc,1,Check to see if home warranty has been ordered
CA-000117,CA,coe,4.25,sa,3,coe,-10,Audit file
CA-000118,CA,coe,4.26,sa,3,coe,-7,Send information to escrow
CA-000119,CA,coe,4.27,sa,3,coe,2,Send completed file to agents
CA-000120,CA,coe,4.28,sa,3,coe,0,Send congratulatory email to all parties
CA-000248,CA,ah,5,da-ah,1,aoo,0,user-defined
CA-000122,CA,hl,5.01,da,1,aoo,0,Add property in MLS
CA-000123,CA,hl,5.02,da,1,aoo,0,Complete Listing Agreement
CA-000124,CA,oe,5.03,da,1,aoo,0,Create a folder to store all files for the transaction
CA-000125,CA,oe,5.04,da,1,aoo,-5,Get a signed representation agreement
CA-000126,CA,oe,5.05,da,1,aoo,0,Get a signed TC Contract
CA-000127,CA,oe,5.06,da,1,aoo,0,Open escrow and have them order HOA
CA-000128,CA,hl,5.07,da,1,aoo,0,Order photo shoot
CA-000129,CA,apr,5.08,da,9,app,-7,Ask Buyer's Agent about status of appraisal
CA-000130,CA,dis,5.09,da,2,oe,4,Ask seller to complete TDS and SPQ
CA-000131,CA,coe,5.1,da,8,lc,1,Check to see if home warranty has been ordered
CA-000132,CA,dis,5.11,da,1,aoo,3,Complete AVID
CA-000133,CA,coe,5.12,da,4,deposit,4,Confirm escrow has ordered city reports
CA-000134,CA,insp,5.13,da,2,oe,7,Confirm escrow has ordered HOA docs
CA-000135,CA,dep,5.14,da,4,deposit,0,Confirm escrow received EMD
CA-000136,CA,insp,5.15,da,2,oe,4,Confirm inspection dates
CA-000137,CA,apr,5.16,da,1,aoo,7,Confirm lender has scheduled the appraisal
CA-000138,CA,insp,5.17,da,1,aoo,3,Have buyer choose a home inspection company
CA-000139,CA,insp,5.18,da,1,aoo,3,Have buyer choose a termite inspection company
CA-000140,CA,lf,5.19,da,4,deposit,3,Have commission instructions signed and submitted to escrow
CA-000141,CA,insp,5.2,da,7,ic,-3,Make Requests for Repair
CA-000142,CA,dis,5.21,da,2,oe,1,Order NHD
CA-000143,CA,dis,5.22,da,5,dis-to-b,-3,Prepare disclosures for signature
CA-000144,CA,roc,5.23,da,7,ic,0,Remove inspection contingency
CA-000145,CA,dis,5.24,da,5,dis-to-b,0,Request disclosures from seller
CA-000146,CA,dis,5.25,da,6,dis-from-b,0,Request signed disclosures from buyer
CA-000147,CA,dis,5.26,da,5,dis-to-b,-1,"Review sellers disclosures for dates, signatures, and completeness"
CA-000148,CA,dis,5.27,da,5,dis-to-b,1,"Review disclosures for signatures, explanations, and dates"
CA-000149,CA,acpt,5.28,da,1,aoo,0,Review Offer for errors or issues
CA-000150,CA,insp,5.29,da,1,aoo,3,Schedule a home inspection
CA-000151,CA,insp,5.3,da,1,aoo,4,Schedule termite inspection
CA-000152,CA,acpt,5.31,da,1,aoo,1,Send an intro to escrow including timelines
CA-000153,CA,acpt,5.32,da,1,aoo,1,Send an intro to lender including timelines
CA-000154,CA,dis,5.33,da,5,dis-to-b,1,Send disclosures to buyer with Homeowner
CA-000155,CA,acpt,5.34,da,1,aoo,1,Send new transaction email to buyer and seller
CA-000156,CA,dis,5.35,da,5,dis-to-b,0,"Send TDS, SPQ, and AVID to buyer"
CA-000157,CA,coe,5.36,da,3,coe,-10,Audit file
CA-000158,CA,insp,5.37,da,3,coe,-7,Final Walk Through
CA-000159,CA,coe,5.38,da,3,coe,-7,Send buyer a pre-closing email
CA-000160,CA,coe,5.39,da,4,deposit,3,Send Commission Instructions to Escrow
CA-000161,CA,coe,5.4,da,3,coe,0,Send congratulatory email to all parties
CA-000162,CA,coe,5.41,da,3,coe,-7,Send information to escrow
CA-000163,CA,insp,5.42,da,7,ic,-3,Submit requests for repairs
CA-000059,CA,ah,6,b-ah,1,aoo,0,user-defined
CA-000165,CA,oe,6.01,b,1,aoo,-5,Find a Home
CA-000166,CA,oe,6.02,b,1,aoo,-3,Submit Residential Purchase Agreement
CA-000167,CA,oe,6.03,b,1,aoo,0,Accepted Offer
CA-000168,CA,insp,6.04,b,1,aoo,3,Choose a home inspection company
CA-000169,CA,insp,6.05,b,1,aoo,3,Choose a termite inspection company
CA-000170,CA,roc,6.06,b,1,aoo,3,Choose a Lender
CA-000171,CA,oe,6.07,b,4,deposit,0,Send earnest money deposit to escrow
CA-000172,CA,insp,6.08,b,1,aoo,3,Schedule a home inspection
CA-000173,CA,insp,6.09,b,1,aoo,4,Schedule termite inspection
CA-000174,CA,dis,6.1,b,6,dis-from-b,0,Review disclosures from seller
CA-000175,CA,dis,6.11,b,6,dis-from-b,0,Review Homeowner
CA-000176,CA,apr,6.12,b,1,aoo,7,Confirm lender has scheduled the appraisal
CA-000177,CA,insp,6.13,b,7,ic,-3,Submit requests for repairs to seller
CA-000178,CA,roc,6.14,b,7,ic,0,Remove inspection contingency
CA-000179,CA,coe,6.15,b,8,lc,1,Check to see if home warranty has been ordered
CA-000180,CA,insp,6.16,b,3,coe,-7,Final Walk Through
CA-000181,CA,coe,6.17,b,10,pp,0,Move In
CA-000247,CA,coe,14.49,dtc,4,deposit,4,Checking with escrow to see if they have ordered city reports
CA-000246,CA,apr,14.48,dtc,1,aoo,10,Email buyer's agent to ask about status of appraisal
CA-000245,CA,dis,14.47,dtc,5,dis-to-b,1,Send Homeowner's Guide booklet (environmental hazard) to seller and get signed receipt
CA-000244,CA,dis,14.46,dtc,6,dis-from-b,1,Review disclosures for signatures
CA-000243,CA,dis,14.45,dtc,6,dis-from-b,0,Follow-up with buyer's agent to request signed disclosures
CA-000242,CA,insp,14.44,dtc,2,oe,7,Confirm escrow has ordered HOA docs
CA-000241,CA,insp,14.43,dtc,1,aoo,4,Ask Buyer's Agent to confirm inspection dates
CA-000239,CA,dis,14.41,dtc,2,oe,4,Request AVID from Both Agents
CA-000238,CA,dis,14.4,dtc,2,oe,4,Send out disclosures to buyer's agent and request AVID
CA-000237,CA,dis,14.39,dtc,5,dis-to-b,-1,"Review sellers disclosures for dates, signatures, and completeness"
CA-000236,CA,dis,14.38,dtc,2,oe,4,Follow-up to get disclosures
CA-000235,CA,dis,14.37,dtc,2,oe,1,Order NHD
CA-000234,CA,dis,14.36,dtc,5,dis-to-b,-3,Prepare disclosures for signature
CA-000233,CA,acpt,14.35,dtc,1,aoo,1,Send an intro email to buyer's agent including timelines
CA-000232,CA,acpt,14.34,dtc,1,aoo,1,Send an intro email to seller including timelines
CA-000231,CA,oe,14.33,dtc,1,aoo,0,Contact escrow to open escrow including intro email and ask them to order HOA
CA-000230,CA,oe,14.32,dtc,1,aoo,0,Create a folder to store all files for the transaction
CA-000228,CA,hl,14.3,dtc,1,aoo,0,Input photos and listing details into the MLS
CA-000227,CA,hl,14.29,dtc,1,aoo,0,Order photo shoot
CA-000226,CA,hl,14.28,dtc,1,aoo,0,"If needed, type up listing agreement"
CA-000225,CA,coe,14.27,dtc,4,deposit,3,Send Commission Instructions to Escrow
CA-000224,CA,insp,14.26,dtc,7,ic,-3,Make Requests for Repair
CA-000223,CA,coe,14.25,dtc,3,coe,0,Send congratulatory email to all parties
CA-000222,CA,coe,14.24,dtc,3,coe,2,Send completed file to agents
CA-000221,CA,coe,14.23,dtc,3,coe,-7,Send information to escrow with required closing items
CA-000220,CA,coe,14.22,dtc,3,coe,-7,Send buyer and buyer's agent a pre-closing email
CA-000219,CA,coe,14.21,dtc,3,coe,-10,Audit file
CA-000218,CA,coe,14.2,dtc,8,lc,1,Check to see if home warranty has been ordered
CA-000217,CA,lf,14.19,dtc,4,deposit,3,Have commission instructions signed and submitted to escrow
CA-000216,CA,roc,14.18,dtc,7,ic,1,Ask Buyer's agent to remove inspection contingency
CA-000215,CA,insp,14.17,dtc,8,lc,1,Ask Buyer's Agent about requests for repairs
CA-000214,CA,lf,14.16,dtc,4,deposit,3,Follow-up with escrow to see if escrow instructions have been received and signed by both parties
CA-000213,CA,coe,14.15,dtc,4,deposit,4,Follow-up with escrow to see if they have ordered city reports
CA-000212,CA,apr,14.14,dtc,1,aoo,7,Remind the buyer's agent to schedule appraisal
CA-000211,CA,dis,14.13,dtc,5,dis-to-b,1,Send disclosures to buyer for review and signature with Homeowner's Guide booklet (environmental hazard)
CA-000210,CA,dis,14.12,dtc,5,dis-to-b,1,"Review disclosures for signatures, explanations, and dates"
CA-000209,CA,dep,14.11,dtc,4,deposit,0,Follow-up with escrow on third business day to ensure EMD was received
CA-000208,CA,dis,14.1,dtc,2,oe,4,Follow-up to get disclosures
CA-000207,CA,insp,14.09,dtc,1,aoo,3,"Remind buyer's agent to schedule a home inspection, termite, and complete AVID"
CA-000206,CA,insp,14.08,dtc,1,aoo,3,Remind buyer to schedule a home inspection and termite
CA-000205,CA,acpt,14.07,dtc,1,aoo,1,Send an intro to lender including timelines
CA-000204,CA,acpt,14.06,dtc,1,aoo,1,Send an intro to escrow including timelines
CA-000203,CA,acpt,14.05,dtc,1,aoo,1,Send an intro email to listing agent including timelines
CA-000202,CA,acpt,14.04,dtc,1,aoo,1,Send an intro email to buyer including timelines
CA-000201,CA,acpt,14.03,dtc,1,aoo,0,Review Offer for errors or issues
CA-000200,CA,oe,14.02,dtc,1,aoo,0,Create a folder to store all files for the transaction
CA-000199,CA,oe,14.01,dtc,1,aoo,0,Get a signed TC Contract
CA-000198,CA,ah,14,dtc-ah,1,aoo,0,user-defined
CA-000197,CA,ah,15,a-ah,1,aoo,0,user-defined
CA-000196,CA,ah,13,tc-ah,1,aoo,0,user-defined
CA-000195,CA,ah,12,t-ah,1,aoo,0,user-defined
CA-000194,CA,ah,11,e-ah,1,aoo,0,user-defined
CA-000193,CA,ah,10,l-ah,1,aoo,0,user-defined
CA-000192,CA,ah,8,bo-ah,1,aoo,0,user-defined
CA-000191,CA,coe,7.09,s,10,pp,0,Turn over possession of the property
CA-000190,CA,dis,7.08,s,6,dis-from-b,0,Request signed disclosures from buyer
CA-000189,CA,dis,7.07,s,5,dis-to-b,0,Complete other required disclosures
CA-000188,CA,dis,7.06,s,5,dis-to-b,0,Complete earthquake hazard report
CA-000187,CA,dis,7.05,s,5,dis-to-b,0,Complete the Seller Property Questionnaire
CA-000186,CA,dis,7.04,s,5,dis-to-b,0,Complete the Transfer Disclosure Statement
CA-000185,CA,oe,7.03,s,2,oe,-1,Open escrow
CA-000184,CA,oe,7.02,s,1,aoo,0,Accept an offer on the home
CA-000183,CA,oe,7.01,s,1,aoo,-5,Prepare the house for sale
CA-000182,CA,ah,9,br-ah,1,aoo,0,user-defined
CA-000092,CA,ah,7,s-ah,1,aoo,0,user-defined
