nickname,Documents_Code,Type,ServiceProvider,Parameter_1_Name,Parameter_1,Parameter_2_Name,Parameter_2,Parameter_3_Name,Parameter_3
additional Data,_CA-00001,disclosure,FormAPI,visual,tpl_YME4YD7XqMxXZEh2AP,,,,
avid-b,CA-00004,disclosure,FormAPI,questionnaire,tpl_JQe3F92abc3kqTtkZK,visual,tpl_T2QHaPZDzpcDR5s7JJ,,
avid-s,CA-00005,disclosure,FormAPI,questionnaire,tpl_JQe3F92abc3kqTtkZK,visual,tpl_T2QHaPZDzpcDR5s7JJ,,
dia,CA-00067,disclosure,FormAPI,questionnaire,tpl_fsf7ggfmdZJLxgxzDN,visual,tpl_fsf7ggfmdZJLxgxzDN,,
ehr,CA-00010,agreement,FormAPI,questionnaire,tpl_69CYKCQXpECecDSgLn,visual,tpl_55xYsnas2C5cr6kCeF,,
spq,CA-00041,disclosure,FormAPI,questionnaire,tpl_S3pb25tDHATH7Gdxtn,visual,tpl_yhd5zMxmqdnEEbAs4R,,
tds,CA-00045,disclosure,FormAPI,questionnaire,tpl_CKL9TLxHxZ9EAnTAkq,visual,tpl_jFgKpkrnqzSdaKsCCn,,
tcsa,CA-00066,agreement,FormAPI,,,visual,,,
ad-2,CA-00003,disclosure,FormAPI,,,visual,tpl_nzsSYfLfh2cHNsxCeh,,
bia,CA-00006,disclosure,FormAPI,,,visual,tpl_CzfHFJcbPeA7xjMAZK,,
rr,CA-00061,disclosure,FormAPI,,,visual,tpl_2XJ74kTyqnnss3mQFk,,
adm,CA-00063,disclosure,FormAPI,,,visual,tpl_dJk9rYjz2kMbk7RYcM,,
bre,CA-00079,disclosure,FormAPI,,,visual,tpl_7GZNJT3ALenAtLN7Gb,,
