ID,Code,State,Category,TaskSets_Value,Order,ShortName,New Group,Description,IncludeWhen,Utilities,Timeline_ID,Timeline_Code,DateOffset,isTest,Status,Notes,DateCreated,DateUpdated,deleted_at
1,CA-000184,CA,oe,s,7.02,,1,Accept an offer on the home,,,1,aoo,0,0,,,11/1/2019 0:00,,
2,CA-000167,CA,oe,b,6.03,,2,Accepted Offer,,,1,aoo,0,0,,,11/1/2019 0:00,,
156,CA-000033,CA,hl,stc,2.03,,3,Add listing to the MLS,[entities.Role.sa] .eq. !true,,1,aoo,0,0,,,11/1/2019 0:00,,
4,CA-000095,CA,hl,sa,4.03,,3,Add property in MLS,,,1,aoo,0,0,,,11/1/2019 0:00,,
5,CA-000122,CA,hl,da,5.01,,3,Add property in MLS,,,1,aoo,0,0,,,11/1/2019 0:00,,
164,CA-000019,CA,insp,btc,1.17,,5,Ask Buyer's side about requests for repairs,,,8,lc,1,0,,,11/1/2019 0:00,,
165,CA-000215,CA,insp,dtc,14.17,,5,Ask Buyer's side about requests for repairs,,,8,lc,1,0,,,11/1/2019 0:00,,
8,CA-000113,CA,apr,sa,4.21,,6,Ask Buyer's side about status of appraisal,[specifics.Fieldname.hasAppraisalContingency.Value] .gt. 0,,1,aoo,7,0,,,11/1/2019 0:00,,
168,CA-000046,CA,insp,stc,2.16,,7,Ask Buyer's side to confirm inspection dates,[specifics.Fieldname.hasInspectionContingency.Value] .gt. 0,,1,aoo,4,0,,,11/1/2019 0:00,,
169,CA-000241,CA,insp,dtc,14.43,,7,Ask Buyer's Side to confirm inspection dates,[specifics.Fieldname.hasInspectionContingency.Value] .gt. 0,,1,aoo,4,0,,,11/1/2019 0:00,,
202,CA-000020,CA,roc,btc,1.18,,8,Ask Buyer's side to remove inspection contingency,[specifics.Fieldname.hasInspectionContingency.Value] .gt. 0,,7,ic,1,0,,,11/1/2019 0:00,,
206,CA-000216,CA,roc,dtc,14.18,,8,Ask Buyer's side to remove inspection contingency,[specifics.Fieldname.hasInspectionContingency.Value] .gt. 0,,7,ic,1,0,,,11/1/2019 0:00,,
12,CA-000103,CA,dis,sa,4.11,,9,Ask seller to complete TDS and SPQ,,,5,dis-to-b,-2,0,,,11/1/2019 0:00,,
13,CA-000130,CA,dis,da,5.09,,9,Ask seller to complete TDS and SPQ,,,2,oe,4,0,,,11/1/2019 0:00,,
15,CA-000085,CA,coe,ba,3.26,,a,Audit file,,,3,coe,-10,0,,,11/1/2019 0:00,,
16,CA-000117,CA,coe,sa,4.25,,a,Audit file,,,3,coe,-10,0,,,11/1/2019 0:00,,
17,CA-000157,CA,coe,da,5.36,,a,Audit file,,,3,coe,-10,0,,,11/1/2019 0:00,,
59,CA-000023,CA,coe,btc,1.21,,a,Audit file,,,3,coe,-10,0,,,11/1/2019 0:00,,
60,CA-000055,CA,coe,stc,2.25,,a,Audit file,,,3,coe,-10,0,,,11/1/2019 0:00,,
61,CA-000219,CA,coe,dtc,14.21,,a,Audit file,,,3,coe,-10,0,,,11/1/2019 0:00,,
21,CA-000084,CA,coe,ba,3.25,,d,Check to see if home warranty has been ordered,,,8,lc,1,0,,,11/1/2019 0:00,,
22,CA-000116,CA,coe,sa,4.24,,d,Check to see if home warranty has been ordered,,,8,lc,1,0,,,11/1/2019 0:00,,
23,CA-000131,CA,coe,da,5.1,,d,Check to see if home warranty has been ordered,,,8,lc,1,0,,,11/1/2019 0:00,,
24,CA-000179,CA,coe,b,6.15,,d,Check to see if home warranty has been ordered,,,8,lc,1,0,,,11/1/2019 0:00,,
66,CA-000022,CA,coe,btc,1.2,,d,Check to see if home warranty has been ordered,,,8,lc,1,0,,,11/1/2019 0:00,,
67,CA-000054,CA,coe,stc,2.24,,d,Check to see if home warranty has been ordered,,,8,lc,1,0,,,11/1/2019 0:00,,
68,CA-000218,CA,coe,dtc,14.2,,d,Check to see if home warranty has been ordered,,,8,lc,1,0,,,11/1/2019 0:00,,
69,CA-000052,CA,coe,stc,2.22,,e,Checking with escrow to see if they have ordered city reports,,,4,deposit,4,0,,,11/1/2019 0:00,,
70,CA-000247,CA,coe,dtc,14.49,,e,Checking with escrow to see if they have ordered city reports,,,4,deposit,4,0,,,11/1/2019 0:00,,
28,CA-000168,CA,insp,b,6.04,,f,Choose a home inspection company,[specifics.Fieldname.hasInspectionContingency.Value] .gt. 0,,1,aoo,3,0,,,11/1/2019 0:00,,
29,CA-000170,CA,roc,b,6.06,,g,Choose a Lender,,,1,aoo,3,0,,,11/1/2019 0:00,,
30,CA-000169,CA,insp,b,6.05,,h,Choose a termite inspection company,[specifics.Fieldname.needsTermiteInspection.Value] .eq. !true,,1,aoo,3,0,,,11/1/2019 0:00,,
31,CA-000074,CA,dis,ba,3.15,,i,Complete AVID,,questionnaire:CA-00004|formfiller:CA-00004,6,dis-from-b,0,0,,,11/1/2019 0:00,,
32,CA-000106,CA,dis,sa,4.14,,i,Complete AVID,,questionnaire:CA-00004|formfiller:CA-00004,2,oe,4,0,,,11/1/2019 0:00,,
33,CA-000132,CA,dis,da,5.11,,i,Complete AVID,,questionnaire:CA-00004|formfiller:CA-00004,1,aoo,3,0,,,11/1/2019 0:00,,
34,CA-000188,CA,dis,s,7.06,,j,Complete earthquake hazard report,[specifics.Fieldname.hasInspectionContingency.Value] .gt. 0,questionnaire:CA-00010|formfiller:CA-00010,5,dis-to-b,0,0,,,11/1/2019 0:00,,
35,CA-000093,CA,hl,sa,4.01,,l,Complete Listing Agreement,,,1,aoo,0,0,,,11/1/2019 0:00,,
36,CA-000123,CA,hl,da,5.02,,l,Complete Listing Agreement,,,1,aoo,0,0,,,11/1/2019 0:00,,
37,CA-000189,CA,dis,s,7.07,,m,Complete other required disclosures,,,5,dis-to-b,0,0,,,11/1/2019 0:00,,
38,CA-000250,CA,dis,s,14.51,,n,Complete SPQ,,questionnaire:CA-00041|formfiller:CA-00041,5,dis-to-b,0,0,,,11/1/2019 0:00,,
39,CA-000249,CA,dis,s,14.5,,o,Complete TDS,,questionnaire:CA-00045|formfiller:CA-00045,5,dis-to-b,0,0,,,11/1/2019 0:00,,
40,CA-000187,CA,dis,s,7.05,,p,Complete the Seller Property Questionnaire,,,5,dis-to-b,0,0,,,11/1/2019 0:00,,
41,CA-000186,CA,dis,s,7.04,,q,Complete the Transfer Disclosure Statement,,,5,dis-to-b,0,0,,,11/1/2019 0:00,,
42,CA-000077,CA,apr,ba,3.18,,r,Confirm appraisal has been scheduled,[specifics.Fieldname.hasAppraisalContingency.Value] .gt. 0,,1,aoo,7,0,,,11/1/2019 0:00,,
43,CA-000137,CA,apr,da,5.16,,r,Confirm appraisal has been scheduled,[specifics.Fieldname.hasAppraisalContingency.Value] .gt. 0,,1,aoo,7,0,,,11/1/2019 0:00,,
44,CA-000176,CA,apr,b,6.12,,r,Confirm appraisal has been scheduled,[specifics.Fieldname.hasAppraisalContingency.Value] .gt. 0,,1,aoo,7,0,,,11/1/2019 0:00,,
45,CA-000078,CA,coe,ba,3.19,,s,Confirm escrow has ordered city reports,,,4,deposit,4,0,,,11/1/2019 0:00,,
46,CA-000114,CA,coe,sa,4.22,,s,Confirm escrow has ordered city reports,,,4,deposit,4,0,,,11/1/2019 0:00,,
47,CA-000133,CA,coe,da,5.12,,s,Confirm escrow has ordered city reports,,,4,deposit,4,0,,,11/1/2019 0:00,,
49,CA-000109,CA,insp,sa,4.17,,t,Confirm escrow has ordered HOA docs,,,2,oe,7,0,,,11/1/2019 0:00,,
50,CA-000134,CA,insp,da,5.13,,t,Confirm escrow has ordered HOA docs,,,2,oe,7,0,,,11/1/2019 0:00,,
172,CA-000047,CA,insp,stc,2.17,,t,Confirm escrow has ordered HOA docs,,,2,oe,7,0,,,11/1/2019 0:00,,
174,CA-000242,CA,insp,dtc,14.44,,t,Confirm escrow has ordered HOA docs,,,2,oe,7,0,,,11/1/2019 0:00,,
52,CA-000079,CA,lf,ba,3.2,,u,Confirm escrow instructions have been received and signed by both parties,,,4,deposit,3,0,,,11/1/2019 0:00,,
53,CA-000073,CA,dep,ba,3.14,,v,Confirm escrow received EMD,,,4,deposit,0,0,,,11/1/2019 0:00,,
54,CA-000107,CA,dep,sa,4.15,,v,Confirm escrow received EMD,,,4,deposit,0,0,,,11/1/2019 0:00,,
55,CA-000135,CA,dep,da,5.14,,v,Confirm escrow received EMD,,,4,deposit,0,0,,,11/1/2019 0:00,,
56,CA-000136,CA,insp,da,5.15,,w,Confirm inspection dates,[specifics.Fieldname.hasInspectionContingency.Value] .gt. 0,,2,oe,4,0,,,11/1/2019 0:00,,
57,CA-000108,CA,insp,sa,4.16,,x,Confirm inspection dates with buyer,[specifics.Fieldname.hasInspectionContingency.Value] .gt. 0,,1,aoo,6,0,,,11/1/2019 0:00,,
192,CA-000231,CA,oe,dtc,14.33,,z,Contact escrow to open escrow including intro email and ask them to order HOA,,,1,aoo,0,0,,,11/1/2019 0:00,,
158,CA-000031,CA,hl,stc,2.01,,aa,Create a listing agreement,[entities.Role.sa] .eq. !true,,1,aoo,0,0,,,11/1/2019 0:00,,
27,CA-000051,CA,apr,stc,2.21,,bb,Email buyer's side to ask about status of appraisal,[specifics.Fieldname.hasAppraisalContingency.Value] .gt. 0,,1,aoo,10,0,,,11/1/2019 0:00,,
48,CA-000246,CA,apr,dtc,14.48,,bb,Email buyer's side to ask about status of appraisal,[specifics.Fieldname.hasAppraisalContingency.Value] .gt. 0,,1,aoo,10,0,,,11/1/2019 0:00,,
62,CA-000083,CA,insp,ba,3.24,,gg,Final Walk Through,,,3,coe,-7,0,,,11/1/2019 0:00,,
63,CA-000158,CA,insp,da,5.37,,gg,Final Walk Through,,,3,coe,-7,0,,,11/1/2019 0:00,,
64,CA-000180,CA,insp,b,6.16,,gg,Final Walk Through,,,3,coe,-7,0,,,11/1/2019 0:00,,
65,CA-000165,CA,oe,b,6.01,,ii,Find a Home,,,1,aoo,-5,0,,,11/1/2019 0:00,,
103,CA-000041,CA,dis,stc,2.11,,jj,Follow-up to get disclosures,,,2,oe,4,0,,,11/1/2019 0:00,,
106,CA-000236,CA,dis,dtc,14.38,,jj,Follow-up to get disclosures,,,2,oe,4,0,,,11/1/2019 0:00,,
109,CA-000048,CA,dis,stc,2.18,,kk,Follow-up with buyer's side to request signed disclosures,,,6,dis-from-b,0,0,,,11/1/2019 0:00,,
110,CA-000243,CA,dis,dtc,14.45,,kk,Follow-up with buyer's side to request signed disclosures,,,6,dis-from-b,0,0,,,11/1/2019 0:00,,
94,CA-000013,CA,dep,btc,1.11,,ll,Follow-up with escrow on third business day to ensure EMD was received,,,4,deposit,0,0,,,11/1/2019 0:00,,
97,CA-000045,CA,dep,stc,2.15,,ll,Follow-up with escrow on third business day to ensure EMD was received,,,4,deposit,0,0,,,11/1/2019 0:00,,
100,CA-000209,CA,dep,dtc,14.11,,ll,Follow-up with escrow on third business day to ensure EMD was received,,,4,deposit,0,0,,,11/1/2019 0:00,,
182,CA-000018,CA,lf,btc,1.16,,ll,Follow-up with escrow to see if escrow instructions have been received and signed by both parties,,,4,deposit,3,0,,,11/1/2019 0:00,,
183,CA-000214,CA,lf,dtc,14.16,,ll,Follow-up with escrow to see if escrow instructions have been received and signed by both parties,,,4,deposit,3,0,,,11/1/2019 0:00,,
71,CA-000017,CA,coe,btc,1.15,,mm,Follow-up with escrow to see if they have ordered city reports,,,4,deposit,4,0,,,11/1/2019 0:00,,
72,CA-000213,CA,coe,dtc,14.15,,mm,Follow-up with escrow to see if they have ordered city reports,,,4,deposit,4,0,,,11/1/2019 0:00,,
78,CA-000060,CA,oe,ba,3.01,,nn,Get a signed representation agreement,,,1,aoo,-5,0,,,11/1/2019 0:00,,
79,CA-000125,CA,oe,da,5.04,,nn,Get a signed representation agreement,,,1,aoo,-5,0,,,11/1/2019 0:00,,
195,CA-000003,CA,oe,btc,1.01,,oo,Get a signed TC Contract,,,1,aoo,0,0,,,11/1/2019 0:00,,
196,CA-000034,CA,oe,stc,2.04,,oo,Get a signed TC Contract,,,1,aoo,0,0,,,11/1/2019 0:00,,
199,CA-000199,CA,oe,dtc,14.01,,oo,Get a signed TC Contract,,,1,aoo,0,0,,,11/1/2019 0:00,,
83,CA-000068,CA,insp,ba,3.09,,pp,Have buyer choose a home inspection company,[specifics.Fieldname.hasInspectionContingency.Value] .gt. 0,,1,aoo,3,0,,,11/1/2019 0:00,,
84,CA-000138,CA,insp,da,5.17,,pp,Have buyer choose a home inspection company,[specifics.Fieldname.hasInspectionContingency.Value] .gt. 0,,1,aoo,3,0,,,11/1/2019 0:00,,
85,CA-000069,CA,insp,ba,3.1,,pp,Have buyer choose a termite inspection company,[specifics.Fieldname.needsTermiteInspection.Value] .eq. !true,,1,aoo,3,0,,,11/1/2019 0:00,,
86,CA-000139,CA,insp,da,5.18,,pp,Have buyer choose a termite inspection company,[specifics.Fieldname.needsTermiteInspection.Value] .eq. !true,,1,aoo,3,0,,,11/1/2019 0:00,,
89,CA-000115,CA,lf,sa,4.23,,qq,Have commission instructions signed and submitted to escrow,,,4,deposit,3,0,,,11/1/2019 0:00,,
90,CA-000140,CA,lf,da,5.19,,qq,Have commission instructions signed and submitted to escrow,,,4,deposit,3,0,,,11/1/2019 0:00,,
187,CA-000021,CA,lf,btc,1.19,,qq,Have commission instructions signed and submitted to escrow,,,4,deposit,3,0,,,11/1/2019 0:00,,
188,CA-000053,CA,lf,stc,2.23,,rr,Have commission instructions signed and submitted to escrow,[entities.Role.sa] .eq. !true,,4,deposit,3,0,,,11/1/2019 0:00,,
189,CA-000217,CA,lf,dtc,14.19,,rr,Have commission instructions signed and submitted to escrow,,,4,deposit,3,0,,,11/1/2019 0:00,,
159,CA-000228,CA,hl,dtc,14.3,,vv,Input photos and listing details into the MLS,,,1,aoo,0,0,,,11/1/2019 0:00,,
160,CA-000226,CA,hl,dtc,14.28,,xx,Listing agreement,,,1,aoo,0,0,,,11/1/2019 0:00,,
95,CA-000090,CA,insp,ba,3.31,,zz,Make Requests for Repair,,,7,ic,-3,0,,,11/1/2019 0:00,,
96,CA-000141,CA,insp,da,5.2,,zz,Make Requests for Repair,,,7,ic,-3,0,,,11/1/2019 0:00,,
175,CA-000028,CA,insp,btc,1.26,,zz,Make Requests for Repair,,,7,ic,-3,0,,,11/1/2019 0:00,,
176,CA-000224,CA,insp,dtc,14.26,,zz,Make Requests for Repair,,email:34,7,ic,-3,0,,,11/1/2019 0:00,,
98,CA-000181,CA,coe,b,6.17,,aaa,Move In,,,10,pp,0,0,,,11/1/2019 0:00,,
99,CA-000185,CA,oe,s,7.03,,ddd,Open escrow,,,2,oe,-1,0,,,11/1/2019 0:00,,
200,CA-000036,CA,oe,stc,2.06,,eee,Open escrow and ask them to order HOA,,,1,aoo,0,0,,,11/1/2019 0:00,,
101,CA-000098,CA,oe,sa,4.06,,eee,Open escrow and have them order HOA,,,1,aoo,0,0,,,11/1/2019 0:00,,
102,CA-000127,CA,oe,da,5.06,,eee,Open escrow and have them order HOA,,,1,aoo,0,0,,,11/1/2019 0:00,,
104,CA-000102,CA,dis,sa,4.1,,ggg,Order NHD,,,2,oe,1,0,,,11/1/2019 0:00,,
105,CA-000142,CA,dis,da,5.21,,ggg,Order NHD,,,2,oe,1,0,,,11/1/2019 0:00,,
113,CA-000040,CA,dis,stc,2.1,,ggg,Order NHD,,,2,oe,1,0,,,11/1/2019 0:00,,
115,CA-000235,CA,dis,dtc,14.37,,ggg,Order NHD,,,2,oe,1,0,,,11/1/2019 0:00,,
107,CA-000094,CA,hl,sa,4.02,,hhh,Order photo shoot,,,1,aoo,0,0,,,11/1/2019 0:00,,
108,CA-000128,CA,hl,da,5.07,,hhh,Order photo shoot,,,1,aoo,0,0,,,11/1/2019 0:00,,
162,CA-000032,CA,hl,stc,2.02,,hhh,Order photo shoot,[entities.Role.sa] .eq. !true,,1,aoo,0,0,,,11/1/2019 0:00,,
163,CA-000227,CA,hl,dtc,14.29,,hhh,Order photo shoot,,,1,aoo,0,0,,,11/1/2019 0:00,,
111,CA-000101,CA,dis,sa,4.09,,iii,Prepare disclosures for signature,,,5,dis-to-b,-3,0,,,11/1/2019 0:00,,
112,CA-000143,CA,dis,da,5.22,,iii,Prepare disclosures for signature,,,5,dis-to-b,-3,0,,,11/1/2019 0:00,,
116,CA-000039,CA,dis,stc,2.09,,iii,Prepare disclosures for signature,,,5,dis-to-b,-3,0,,,11/1/2019 0:00,,
117,CA-000234,CA,dis,dtc,14.36,,iii,Prepare disclosures for signature,,,5,dis-to-b,-3,0,,,11/1/2019 0:00,,
114,CA-000183,CA,oe,s,7.01,,jjj,Prepare the house for sale,[specifics.Fieldname.hasAppraisalContingency.Value] .gt. 0,,1,aoo,-5,0,,,11/1/2019 0:00,,
178,CA-000010,CA,insp,btc,1.08,,kkk,Remind buyer to schedule inspections,[specifics.Fieldname.hasInspectionContingency.Value] .gt. 0 .or. [specifics.Fieldname.needsTermiteInspection.Value] .eq. !true,alert,1,aoo,3,0,,,11/1/2019 0:00,,
179,CA-000206,CA,insp,dtc,14.08,,kkk,Remind buyer to schedule inspections,[specifics.Fieldname.hasInspectionContingency.Value] .gt. 0 .or. [specifics.Fieldname.needsTermiteInspection.Value] .eq. !true,,1,aoo,3,0,,,11/1/2019 0:00,,
180,CA-000011,CA,insp,btc,1.09,,lll,Remind buyer's agent to schedule inspections and complete AVID,[specifics.Fieldname.hasInspectionContingency.Value] .gt. 0 .or. [specifics.Fieldname.needsTermiteInspection.Value] .eq. !true,alert,1,aoo,3,0,,,11/1/2019 0:00,,
181,CA-000207,CA,insp,dtc,14.09,,lll,Remind buyer's agent to schedule inspections and complete AVID,[specifics.Fieldname.hasInspectionContingency.Value] .gt. 0 .or. [specifics.Fieldname.needsTermiteInspection.Value] .eq. !true,questionnaire:CA-00004|formfiller:CA-00004,1,aoo,3,0,,,11/1/2019 0:00,,
51,CA-000016,CA,apr,btc,1.14,,mmm,Remind the buyer's agent to schedule appraisal,[specifics.Fieldname.hasAppraisalContingency.Value] .gt. 0,alert,1,aoo,7,0,,,11/1/2019 0:00,,
58,CA-000212,CA,apr,dtc,14.14,,nnn,Remind the buyer's side to schedule appraisal,[specifics.Fieldname.hasAppraisalContingency.Value] .gt. 0,,1,aoo,7,0,,,11/1/2019 0:00,,
121,CA-000081,CA,roc,ba,3.22,,ooo,Remove inspection contingency,[specifics.Fieldname.hasInspectionContingency.Value] .gt. 0,,7,ic,0,0,,,11/1/2019 0:00,,
122,CA-000144,CA,roc,da,5.23,,ooo,Remove inspection contingency,[specifics.Fieldname.hasInspectionContingency.Value] .gt. 0,,7,ic,0,0,,,11/1/2019 0:00,,
123,CA-000178,CA,roc,b,6.14,,ooo,Remove inspection contingency,[specifics.Fieldname.hasInspectionContingency.Value] .gt. 0,,7,ic,0,0,,,11/1/2019 0:00,,
118,CA-000239,CA,dis,dtc,14.41,,ppp,Request AVID from Agent(s),[entities.Role.ba] .eq. !true .or. [entities.Role.sa] .eq. !true ,questionnaire:CA-00004|formfiller:CA-00004,2,oe,4,0,,,11/1/2019 0:00,,
119,CA-000044,CA,dis,stc,2.14,,ppp,Request AVID from Agents,[entities.Role.ba] .eq. !true .or. [entities.Role.sa] .eq. !true ,questionnaire:CA-00004|formfiller:CA-00004,2,oe,4,0,,,11/1/2019 0:00,,
120,CA-000012,CA,dis,btc,1.1,,qqq,Request disclosures from seller,,email:36,5,dis-to-b,0,0,,,11/1/2019 0:00,,
127,CA-000145,CA,dis,da,5.24,,qqq,Request disclosures from seller,,email:47,5,dis-to-b,0,0,,,11/1/2019 0:00,,
128,CA-000072,CA,dis,ba,3.13,,qqq,Request disclosures from seller,,email:44,5,dis-to-b,0,0,,,11/1/2019 0:00,,
129,CA-000146,CA,dis,da,5.25,,rrr,Request signed disclosures from buyer,,,6,dis-from-b,0,0,,,11/1/2019 0:00,,
130,CA-000110,CA,dis,sa,4.18,,rrr,Request signed disclosures from buyer,,,6,dis-from-b,0,0,,,11/1/2019 0:00,,
131,CA-000190,CA,dis,s,7.08,,rrr,Request signed disclosures from buyer,,,6,dis-from-b,0,0,,,11/1/2019 0:00,,
124,CA-000014,CA,dis,btc,1.12,,sss,Review Disclosures,,,5,dis-to-b,1,0,,,11/1/2019 0:00,,
125,CA-000042,CA,dis,stc,2.12,,sss,Review Disclosures,,,5,dis-to-b,-1,0,,,11/1/2019 0:00,,
126,CA-000049,CA,dis,stc,2.19,,sss,Review Disclosures,,,6,dis-from-b,1,0,,,11/1/2019 0:00,,
132,CA-000210,CA,dis,dtc,14.12,,sss,Review Disclosures,,,5,dis-to-b,1,0,,,11/1/2019 0:00,,
133,CA-000237,CA,dis,dtc,14.39,,ttt,"Review disclosures for dates, signatures, and completeness",,,5,dis-to-b,-1,0,,,11/1/2019 0:00,,
136,CA-000104,CA,dis,sa,4.12,,ttt,"Review disclosures for dates, signatures, and completeness",,,5,dis-to-b,-1,0,,,11/1/2019 0:00,,
137,CA-000147,CA,dis,da,5.26,,ttt,"Review disclosures for dates, signatures, and completeness",,,5,dis-to-b,-1,0,,,11/1/2019 0:00,,
134,CA-000244,CA,dis,dtc,14.46,,uuu,Review disclosures for signatures,,,6,dis-from-b,1,0,,,11/1/2019 0:00,,
139,CA-000111,CA,dis,sa,4.19,,uuu,Review disclosures for signatures,,,6,dis-from-b,1,0,,,11/1/2019 0:00,,
141,CA-000075,CA,dis,ba,3.16,,vvv,"Review disclosures for signatures, explanations, and dates",,,5,dis-to-b,1,0,,,11/1/2019 0:00,,
142,CA-000148,CA,dis,da,5.27,,vvv,"Review disclosures for signatures, explanations, and dates",,,5,dis-to-b,1,0,,,11/1/2019 0:00,,
143,CA-000174,CA,dis,b,6.1,,www,Review disclosures from seller,,,6,dis-from-b,0,0,,,11/1/2019 0:00,,
144,CA-000175,CA,dis,b,6.11,,xxx,Review Homeowner's Guide booklet to seller and get signed receipt,,,6,dis-from-b,0,0,,,11/1/2019 0:00,,
3,CA-000005,CA,acpt,btc,1.03,,yyy,Review Offer for errors or issues,,,1,aoo,0,0,,,11/1/2019 0:00,,
6,CA-000201,CA,acpt,dtc,14.03,,yyy,Review Offer for errors or issues,,,1,aoo,0,0,,,11/1/2019 0:00,,
146,CA-000063,CA,acpt,ba,3.04,,yyy,Review Offer for errors or issues,,,1,aoo,0,0,,,11/1/2019 0:00,,
147,CA-000149,CA,acpt,da,5.28,,yyy,Review Offer for errors or issues,,,1,aoo,0,0,,,11/1/2019 0:00,,
149,CA-000070,CA,insp,ba,3.11,,zzz,Schedule a home inspection,[specifics.Fieldname.hasInspectionContingency.Value] .gt. 0,,1,aoo,3,0,,,11/1/2019 0:00,,
150,CA-000150,CA,insp,da,5.29,,zzz,Schedule a home inspection,[specifics.Fieldname.hasInspectionContingency.Value] .gt. 0,,1,aoo,3,0,,,11/1/2019 0:00,,
151,CA-000172,CA,insp,b,6.08,,zzz,Schedule a home inspection,[specifics.Fieldname.hasInspectionContingency.Value] .gt. 0,,1,aoo,3,0,,,11/1/2019 0:00,,
152,CA-000071,CA,insp,ba,3.12,,aaaa,Schedule termite inspection,[specifics.Fieldname.needsTermiteInspection.Value] .eq. !true,,1,aoo,3,0,,,11/1/2019 0:00,,
153,CA-000151,CA,insp,da,5.3,,aaaa,Schedule termite inspection,[specifics.Fieldname.needsTermiteInspection.Value] .eq. !true,,1,aoo,4,0,,,11/1/2019 0:00,,
154,CA-000173,CA,insp,b,6.09,,aaaa,Schedule termite inspection,[specifics.Fieldname.needsTermiteInspection.Value] .eq. !true,,1,aoo,4,0,,,11/1/2019 0:00,,
7,CA-000006,CA,acpt,btc,1.04,,bbbb,Send an intro email to buyer including timelines,,,1,aoo,1,0,,,11/1/2019 0:00,,
9,CA-000038,CA,acpt,stc,2.08,,cccc,Send an intro email to buyer's agent including timelines,[entities.Role.ba] .eq. !true,,1,aoo,1,0,,,11/1/2019 0:00,,
10,CA-000233,CA,acpt,dtc,14.35,,dddd,Send an intro email to buyer's side including timelines,,,1,aoo,1,0,,,11/1/2019 0:00,,
157,CA-000100,CA,acpt,sa,4.08,,dddd,Send an intro email to buyer's side including timelines,,,1,aoo,1,0,,,11/1/2019 0:00,,
11,CA-000037,CA,acpt,stc,2.07,,eeee,Send an intro email to seller including timelines,,,1,aoo,1,0,,,11/1/2019 0:00,,
161,CA-000065,CA,acpt,ba,3.06,,ffff,Send an intro email to seller's agent including timelines,,,1,aoo,1,0,,,11/1/2019 0:00,,
14,CA-000007,CA,acpt,btc,1.05,,gggg,Send an intro email to seller's side including timelines,[entities.Role.sa] .eq. !true,,1,aoo,1,0,,,11/1/2019 0:00,,
18,CA-000232,CA,acpt,dtc,14.34,,gggg,Send an intro email to seller's side including timelines,,,1,aoo,1,0,,,11/1/2019 0:00,,
19,CA-000008,CA,acpt,btc,1.06,,hhhh,Send an intro to escrow including timelines,,email:4,1,aoo,1,0,,,11/1/2019 0:00,,
20,CA-000204,CA,acpt,dtc,14.06,,hhhh,Send an intro to escrow including timelines,,,1,aoo,1,0,,,11/1/2019 0:00,,
166,CA-000066,CA,acpt,ba,3.07,,hhhh,Send an intro to escrow including timelines,,,1,aoo,1,0,,,11/1/2019 0:00,,
167,CA-000152,CA,acpt,da,5.31,,hhhh,Send an intro to escrow including timelines,,,1,aoo,1,0,,,11/1/2019 0:00,,
25,CA-000009,CA,acpt,btc,1.07,,iiii,Send an intro to lender including timelines,,email:1,1,aoo,1,0,,,11/1/2019 0:00,,
26,CA-000205,CA,acpt,dtc,14.07,,iiii,Send an intro to lender including timelines,[specifics.Fieldname.LoanType.Value] .eq. cash,,1,aoo,1,0,,,11/1/2019 0:00,,
170,CA-000067,CA,acpt,ba,3.08,,iiii,Send an intro to lender including timelines,,,1,aoo,1,0,,,11/1/2019 0:00,,
171,CA-000153,CA,acpt,da,5.32,,iiii,Send an intro to lender including timelines,,,1,aoo,1,0,,,11/1/2019 0:00,,
173,CA-000159,CA,coe,da,5.38,,jjjj,Send buyer a pre-closing email,,,3,coe,-7,0,,,11/1/2019 0:00,,
73,CA-000024,CA,coe,btc,1.22,,kkkk,Send buyer's side a pre-closing email,,,3,coe,-7,0,,,11/1/2019 0:00,,
74,CA-000220,CA,coe,dtc,14.22,,kkkk,Send buyer's side a pre-closing email,,,3,coe,-7,0,,,11/1/2019 0:00,,
75,CA-000029,CA,coe,btc,1.27,,llll,Send Commission Instructions to Escrow,[entities.Role.ba] .eq. !true,,4,deposit,3,0,,,11/1/2019 0:00,,
76,CA-000225,CA,coe,dtc,14.27,,llll,Send Commission Instructions to Escrow,,,4,deposit,3,0,,,11/1/2019 0:00,,
177,CA-000160,CA,coe,da,5.39,,llll,Send Commission Instructions to Escrow,,,4,deposit,3,0,,,11/1/2019 0:00,,
77,CA-000026,CA,coe,btc,1.24,,mmmm,Send completed file to agents,[entities.Role.ba] .eq. !true .or. [entities.Role.sa] .eq. !true ,,3,coe,2,0,,,11/1/2019 0:00,,
80,CA-000057,CA,coe,stc,2.27,,mmmm,Send completed file to agents,[entities.Role.ba] .eq. !true .or. [entities.Role.sa] .eq. !true ,,3,coe,2,0,,,11/1/2019 0:00,,
81,CA-000222,CA,coe,dtc,14.24,,mmmm,Send completed file to agents,[entities.Role.ba] .eq. !true .or. [entities.Role.sa] .eq. !true ,,3,coe,2,0,,,11/1/2019 0:00,,
82,CA-000027,CA,coe,btc,1.25,,nnnn,Send congratulatory email to all parties,,,3,coe,0,0,,,11/1/2019 0:00,,
87,CA-000058,CA,coe,stc,2.28,,nnnn,Send congratulatory email to all parties,,,3,coe,0,0,,,11/1/2019 0:00,,
88,CA-000223,CA,coe,dtc,14.25,,nnnn,Send congratulatory email to all parties,,,3,coe,0,0,,,11/1/2019 0:00,,
184,CA-000089,CA,coe,ba,3.3,,nnnn,Send congratulatory email to all parties,,,3,coe,0,0,,,11/1/2019 0:00,,
185,CA-000120,CA,coe,sa,4.28,,nnnn,Send congratulatory email to all parties,,,3,coe,0,0,,,11/1/2019 0:00,,
186,CA-000161,CA,coe,da,5.4,,nnnn,Send congratulatory email to all parties,,,3,coe,0,0,,,11/1/2019 0:00,,
135,CA-000015,CA,dis,btc,1.13,,oooo,Send disclosures to buyer for review and signature (with Homeowner's Guide booklet),,,5,dis-to-b,1,0,,,11/1/2019 0:00,,
138,CA-000211,CA,dis,dtc,14.13,,pppp,Send disclosures to buyer for review and signature with Homeowner's Guide booklet (environmental hazard),,,5,dis-to-b,1,0,,,11/1/2019 0:00,,
190,CA-000076,CA,dis,ba,3.17,,qqqq,Send disclosures to buyer with Homeowner,,,5,dis-to-b,1,0,,,11/1/2019 0:00,,
191,CA-000154,CA,dis,da,5.33,,qqqq,Send disclosures to buyer with Homeowner,,,5,dis-to-b,1,0,,,11/1/2019 0:00,,
140,CA-000043,CA,dis,stc,2.13,,rrrr,Send disclosures to buyer's side,,,5,dis-to-b,0,0,,,11/1/2019 0:00,,
193,CA-000171,CA,oe,b,6.07,,ssss,Send earnest money deposit to escrow,,,4,deposit,0,0,,,11/1/2019 0:00,,
145,CA-000245,CA,dis,dtc,14.47,,tttt,Send Homeowner's Guide booklet (environmental hazard) to seller and get signed receipt,,,5,dis-to-b,1,0,,,11/1/2019 0:00,,
194,CA-000112,CA,dis,sa,4.2,,tttt,Send Homeowner's Guide booklet (environmental hazard) to seller and get signed receipt,,,5,dis-to-b,1,0,,,11/1/2019 0:00,,
148,CA-000050,CA,dis,stc,2.2,,uuuu,Send Homeowner's Guide booklet to seller and get signed receipt,,,5,dis-to-b,1,0,,,11/1/2019 0:00,,
197,CA-000118,CA,coe,sa,4.26,,vvvv,Send information to escrow,,,3,coe,-7,0,,,11/1/2019 0:00,,
198,CA-000162,CA,coe,da,5.41,,vvvv,Send information to escrow,,,3,coe,-7,0,,,11/1/2019 0:00,,
91,CA-000025,CA,coe,btc,1.23,,wwww,Send information to escrow with required closing items,,,3,coe,-7,0,,,11/1/2019 0:00,,
92,CA-000056,CA,coe,stc,2.26,,wwww,Send information to escrow with required closing items,,,3,coe,-7,0,,,11/1/2019 0:00,,
93,CA-000221,CA,coe,dtc,14.23,,wwww,Send information to escrow with required closing items,,,3,coe,-7,0,,,11/1/2019 0:00,,
201,CA-000087,CA,coe,ba,3.28,,wwww,Send information to escrow with required closing items,,,3,coe,-7,0,,,11/1/2019 0:00,,
203,CA-000064,CA,acpt,ba,3.05,,xxxx,Send new transaction email to buyer,,,1,aoo,1,0,,,11/1/2019 0:00,,
204,CA-000155,CA,acpt,da,5.34,,yyyy,Send new transaction email to buyer and seller,,,1,aoo,1,0,,,11/1/2019 0:00,,
205,CA-000099,CA,acpt,sa,4.07,,zzzz,Send new transaction email to seller,,,1,aoo,1,0,,,11/1/2019 0:00,,
155,CA-000238,CA,dis,dtc,14.4,,aaaaa,Send out disclosures to buyer's agent and request AVID,,questionnaire:CA-00004|formfiller:CA-00004,2,oe,4,0,,,11/1/2019 0:00,,
207,CA-000156,CA,dis,da,5.35,,bbbbb,"Send TDS, SPQ, and AVID to buyer",,,5,dis-to-b,0,0,,,11/1/2019 0:00,,
208,CA-000105,CA,dis,sa,4.13,,bbbbb,"Send TDS, SPQ, and AVID to buyer",,questionnaire:CA-00004|formfiller:CA-00004,5,dis-to-b,0,0,,,11/1/2019 0:00,,
209,CA-000082,CA,lf,ba,3.23,,ccccc,Submit commission instructions to escrow,,,4,deposit,3,0,,,11/1/2019 0:00,,
210,CA-000163,CA,insp,da,5.42,,ddddd,Submit requests for repairs,,,7,ic,-3,0,,,11/1/2019 0:00,,
211,CA-000177,CA,insp,b,6.13,,eeeee,Submit requests for repairs to seller,,,7,ic,-3,0,,,11/1/2019 0:00,,
212,CA-000166,CA,oe,b,6.02,,fffff,Submit Residential Purchase Agreement,,,1,aoo,-3,0,,,11/1/2019 0:00,,
213,CA-000191,CA,coe,s,7.09,,ggggg,Turn over possession of the property,,,10,pp,0,0,,,11/1/2019 0:00,,
214,CA-000002,CA,ah,btc-ah,1,,hhhhh,user-defined,,,1,aoo,0,0,,,11/1/2019 0:00,,
215,CA-000030,CA,ah,stc-ah,2,,hhhhh,user-defined,,,1,aoo,0,0,,,11/1/2019 0:00,,
216,CA-000059,CA,ah,b-ah,6,,hhhhh,user-defined,,,1,aoo,0,0,,,11/1/2019 0:00,,
217,CA-000092,CA,ah,s-ah,7,,hhhhh,user-defined,,,1,aoo,0,0,,,11/1/2019 0:00,,
218,CA-000121,CA,ah,ba-ah,3,,hhhhh,user-defined,,,1,aoo,0,0,,,11/1/2019 0:00,,
219,CA-000164,CA,ah,sa-ah,4,,hhhhh,user-defined,,,1,aoo,0,0,,,11/1/2019 0:00,,
220,CA-000182,CA,ah,br-ah,9,,hhhhh,user-defined,,,1,aoo,0,0,,,11/1/2019 0:00,,
221,CA-000192,CA,ah,bo-ah,8,,hhhhh,user-defined,,,1,aoo,0,0,,,11/1/2019 0:00,,
222,CA-000193,CA,ah,l-ah,10,,hhhhh,user-defined,,,1,aoo,0,0,,,11/1/2019 0:00,,
223,CA-000194,CA,ah,e-ah,11,,hhhhh,user-defined,,,1,aoo,0,0,,,11/1/2019 0:00,,
224,CA-000195,CA,ah,t-ah,12,,hhhhh,user-defined,,,1,aoo,0,0,,,11/1/2019 0:00,,
225,CA-000196,CA,ah,tc-ah,13,,hhhhh,user-defined,,,1,aoo,0,0,,,11/1/2019 0:00,,
226,CA-000197,CA,ah,a-ah,15,,hhhhh,user-defined,,,1,aoo,0,0,,,11/1/2019 0:00,,
227,CA-000198,CA,ah,dtc-ah,14,,hhhhh,user-defined,,,1,aoo,0,0,,,11/1/2019 0:00,,
228,CA-000248,CA,ah,da-ah,5,,hhhhh,user-defined,,,1,aoo,0,0,,,11/1/2019 0:00,,
356,TX-00128,TX,lf,stc,0,,aaaaaa,Appraisal Report,,,0,lc,7,0,,,11/1/2019 0:00,,
357,TX-00129,TX,lf,sa,0,,aaaaaa,Appraisal Report,,,0,lc,7,0,,,11/1/2019 0:00,,
339,TX-00111,TX,insp,btc,0,,bbbbbb,Buyer Repair Request Final Acceptance,,,0,ic,-2,0,,,11/1/2019 0:00,,
340,TX-00112,TX,insp,ba,0,,bbbbbb,Buyer Repair Request Final Acceptance,,,0,ic,-2,0,,,11/1/2019 0:00,,
341,TX-00113,TX,insp,dtc,0,,bbbbbb,Buyer Repair Request Final Acceptance,,,0,ic,-2,0,,,11/1/2019 0:00,,
342,TX-00114,TX,insp,da,0,,bbbbbb,Buyer Repair Request Final Acceptance,,,0,ic,-2,0,,,11/1/2019 0:00,,
331,TX-00103,TX,insp,btc,0,,cccccc,Buyer's Repair Request,,,0,ic,-4,0,,,11/1/2019 0:00,,
332,TX-00104,TX,insp,ba,0,,cccccc,Buyer's Repair Request,,,0,ic,-4,0,,,11/1/2019 0:00,,
333,TX-00105,TX,insp,dtc,0,,cccccc,Buyer's Repair Request,,,0,ic,-4,0,,,11/1/2019 0:00,,
334,TX-00106,TX,insp,da,0,,cccccc,Buyer's Repair Request,,,0,ic,-4,0,,,11/1/2019 0:00,,
376,TX-00148,TX,insp,ba,0,,dddddd,Complete Final Walkthrough,,,0,pp,-1,0,,,11/1/2019 0:00,,
377,TX-00149,TX,insp,b,0,,dddddd,Complete Final Walkthrough,,,0,pp,-1,0,,,11/1/2019 0:00,,
346,TX-00118,TX,lf,btc,0,,eeeeee,Confirm Appraisal Has Been Scheduled,,,0,lc,1,0,,,11/1/2019 0:00,,
347,TX-00119,TX,lf,stc,0,,eeeeee,Confirm Appraisal Has Been Scheduled,,,0,lc,1,0,,,11/1/2019 0:00,,
348,TX-00120,TX,lf,dtc,0,,eeeeee,Confirm Appraisal Has Been Scheduled,,,0,lc,1,0,,,11/1/2019 0:00,,
349,TX-00121,TX,lf,ba,0,,eeeeee,Confirm Appraisal Has Been Scheduled,,,0,lc,1,0,,,11/1/2019 0:00,,
350,TX-00122,TX,lf,sa,0,,eeeeee,Confirm Appraisal Has Been Scheduled,,,0,lc,1,0,,,11/1/2019 0:00,,
351,TX-00123,TX,lf,da,0,,eeeeee,Confirm Appraisal Has Been Scheduled,,,0,lc,1,0,,,11/1/2019 0:00,,
364,TX-00136,TX,oe,btc,0,,ffffff,Confirm Title Has Been Opened,,,0,oe,0,0,,,11/1/2019 0:00,,
323,TX-00095,TX,insp,dtc,0,,gggggg,Email Buyers That Inspection Has Been Scheduled,,,0,ic,2,0,,,11/1/2019 0:00,,
326,TX-00098,TX,insp,stc,0,,gggggg,Email Buyers That Inspection Has Been Scheduled,,,0,ic,2,0,,,11/1/2019 0:00,,
352,TX-00124,TX,lf,stc,0,,hhhhhh,Ensure lender orders the appraisal,,,0,lc,1,0,,,11/1/2019 0:00,,
353,TX-00125,TX,lf,dtc,0,,hhhhhh,Ensure lender orders the appraisal,,,0,lc,1,0,,,11/1/2019 0:00,,
354,TX-00126,TX,lf,sa,0,,hhhhhh,Ensure lender orders the appraisal,,,0,lc,1,0,,,11/1/2019 0:00,,
355,TX-00127,TX,lf,da,0,,hhhhhh,Ensure lender orders the appraisal,,,0,lc,1,0,,,11/1/2019 0:00,,
232,TX-00004,TX,coe,btc,0,,iiiiii,Ensure Title has CDA and Wiring Instructions,,,0,coe,-5,0,,,11/1/2019 0:00,,
233,TX-00005,TX,coe,dtc,0,,iiiiii,Ensure Title has CDA and Wiring Instructions,,,0,coe,-5,0,,,11/1/2019 0:00,,
234,TX-00006,TX,coe,ba,0,,iiiiii,Ensure Title has CDA and Wiring Instructions,,,0,coe,-5,0,,,11/1/2019 0:00,,
235,TX-00007,TX,coe,da,0,,iiiiii,Ensure Title has CDA and Wiring Instructions,,,0,coe,-5,0,,,11/1/2019 0:00,,
229,TX-00001,TX,acpt,da,0,,jjjjjj,Executed Contract and Next Steps Email,,,0,aoo,0,0,,,11/1/2019 0:00,,
231,TX-00003,TX,acpt,stc,0,,jjjjjj,Executed Contract and Next Steps Email,,,0,aoo,0,0,,,11/1/2019 0:00,,
363,TX-00135,TX,oe,dtc,0,,jjjjjjj,Executed Contract and Next Steps Email,,,0,oe,0,0,,,11/1/2019 0:00,,
358,TX-00130,TX,lf,dtc,0,,kkkkkk,Financing Deadline,,,0,lc,-4,0,,,11/1/2019 0:00,,
359,TX-00131,TX,lf,btc,0,,kkkkkk,Financing Deadline,,,0,lc,-4,0,,,11/1/2019 0:00,,
360,TX-00132,TX,lf,stc,0,,kkkkkk,Financing Deadline,,,0,lc,-4,0,,,11/1/2019 0:00,,
316,TX-00088,TX,e/t,sa,0,,llllll,HOA Rules and Covenants Documents,[Properties.hasHOA] .eq. !true,,0,aoo,7,0,,,11/1/2019 0:00,,
315,TX-00087,TX,e/t,sa,0,,mmmmmm,HOA Transfer Package Information,[Properties.hasHOA] .eq. !true,,0,aoo,7,0,,,11/1/2019 0:00,,
389,TX-00161,TX,coe,btc,0,,nnnnnn,Home Warranty Invoice,,,0,aoo,-3,0,,,11/1/2019 0:00,,
390,TX-00162,TX,coe,stc,0,,nnnnnn,Home Warranty Invoice,,,0,aoo,-3,0,,,11/1/2019 0:00,,
391,TX-00163,TX,coe,dtc,0,,nnnnnn,Home Warranty Invoice,,,0,aoo,-3,0,,,11/1/2019 0:00,,
392,TX-00164,TX,coe,ba,0,,nnnnnn,Home Warranty Invoice,,,0,aoo,-3,0,,,11/1/2019 0:00,,
393,TX-00165,TX,coe,sa,0,,nnnnnn,Home Warranty Invoice,,,0,aoo,-3,0,,,11/1/2019 0:00,,
394,TX-00166,TX,coe,da,0,,nnnnnn,Home Warranty Invoice,,,0,aoo,-3,0,,,11/1/2019 0:00,,
344,TX-00116,TX,lf,dtc,0,,oooooo,Introduction to Lender,,,0,aoo,0,0,,,11/1/2019 0:00,,
345,TX-00117,TX,lf,btc,0,,oooooo,Introduction to Lender,,,0,aoo,0,0,,,11/1/2019 0:00,,
312,TX-00084,TX,e/t,ba,0,,pppppp,Make any requested payments by title,,,0,aoo,1,0,,,11/1/2019 0:00,,
313,TX-00085,TX,e/t,sa,0,,pppppp,Make any requested payments by title,,,0,aoo,1,0,,,11/1/2019 0:00,,
317,TX-00089,TX,e/t,b,0,,pppppp,Make any requested payments by title,,,0,aoo,1,0,,,11/1/2019 0:00,,
318,TX-00090,TX,e/t,s,0,,pppppp,Make any requested payments by title,,,0,aoo,1,0,,,11/1/2019 0:00,,
319,TX-00091,TX,insp,da,0,,qqqqqq,Notify Buyer and Seller's Agent of Inspection Date and Time,,,0,ic,2,0,,,11/1/2019 0:00,,
321,TX-00093,TX,insp,ba,0,,qqqqqq,Notify Buyer and Seller's Agent of Inspection Date and Time,,,0,ic,2,0,,,11/1/2019 0:00,,
325,TX-00097,TX,insp,btc,0,,rrrrrr,Notify Seller of Inspection,,,0,ic,2,0,,,11/1/2019 0:00,,
361,TX-00133,TX,oe,dtc,0,,ssssss,Open Title,,,0,oe,0,0,,,11/1/2019 0:00,,
367,TX-00139,TX,oe,stc,0,,ssssss,Open Title,,,0,oe,0,0,,,11/1/2019 0:00,,
314,TX-00086,TX,e/t,sa,0,,tttttt,Request HOA Transfer Package,[Properties.hasHOA] .eq. !true,,0,aoo,5,0,,,11/1/2019 0:00,,
362,TX-00134,TX,oe,dtc,0,,uuuuuu,Request Survey and T-47,,,0,oe,0,0,,,11/1/2019 0:00,,
365,TX-00137,TX,oe,btc,0,,uuuuuu,Request Survey and T-47,,,0,oe,0,0,,,11/1/2019 0:00,,
368,TX-00140,TX,oe,stc,0,,uuuuuu,Request Survey and T-47,,,0,oe,0,0,,,11/1/2019 0:00,,
256,TX-00028,TX,coe,da,0,,vvvvvv,Review Closing Documents,,,0,coe,-3,0,,,11/1/2019 0:00,,
257,TX-00029,TX,coe,ba,0,,vvvvvv,Review Closing Documents,,,0,coe,-3,0,,,11/1/2019 0:00,,
258,TX-00030,TX,coe,sa,0,,vvvvvv,Review Closing Documents,,,0,coe,-3,0,,,11/1/2019 0:00,,
294,TX-00066,TX,dis,ba,0,,wwwwww,Review Survey Report,,,0,dis-to-b,10,0,,,11/1/2019 0:00,,
296,TX-00068,TX,dis,sa,0,,wwwwww,Review Survey Report,,,0,dis-to-b,10,0,,,11/1/2019 0:00,,
297,TX-00069,TX,dis,b,0,,wwwwww,Review Survey Report,,,0,dis-to-b,10,0,,,11/1/2019 0:00,,
299,TX-00071,TX,dis,s,0,,wwwwww,Review Survey Report,,,0,dis-to-b,10,0,,,11/1/2019 0:00,,
248,TX-00020,TX,coe,btc,0,,xxxxxx,Schedule Closing Date,,,0,coe,-15,0,,,11/1/2019 0:00,,
249,TX-00021,TX,coe,stc,0,,xxxxxx,Schedule Closing Date,,,0,coe,-15,0,,,11/1/2019 0:00,,
250,TX-00022,TX,coe,dtc,0,,xxxxxx,Schedule Closing Date,,,0,coe,-15,0,,,11/1/2019 0:00,,
251,TX-00023,TX,coe,b,0,,xxxxxx,Schedule Closing Date,,,0,coe,-15,0,,,11/1/2019 0:00,,
252,TX-00024,TX,coe,s,0,,xxxxxx,Schedule Closing Date,,,0,coe,-15,0,,,11/1/2019 0:00,,
253,TX-00025,TX,coe,ba,0,,xxxxxx,Schedule Closing Date,,,0,coe,-15,0,,,11/1/2019 0:00,,
254,TX-00026,TX,coe,sa,0,,xxxxxx,Schedule Closing Date,,,0,coe,-15,0,,,11/1/2019 0:00,,
255,TX-00027,TX,coe,stc,0,,xxxxxx,Schedule Closing Date,,,0,coe,-15,0,,,11/1/2019 0:00,,
380,TX-00152,TX,insp,btc,0,,yyyyyy,Schedule Final Walkthrough,,,0,pp,-2,0,,,11/1/2019 0:00,,
381,TX-00153,TX,insp,dtc,0,,yyyyyy,Schedule Final Walkthrough,,,0,pp,-2,0,,,11/1/2019 0:00,,
382,TX-00154,TX,insp,ba,0,,yyyyyy,Schedule Final Walkthrough,,,0,pp,-2,0,,,11/1/2019 0:00,,
383,TX-00155,TX,insp,da,0,,yyyyyy,Schedule Final Walkthrough,,,0,pp,-2,0,,,11/1/2019 0:00,,
384,TX-00156,TX,insp,b,0,,yyyyyy,Schedule Final Walkthrough,,,0,pp,-2,0,,,11/1/2019 0:00,,
320,TX-00092,TX,insp,ba,0,,zzzzzz,Schedule Home Inspection,,,0,ic,1,0,,,11/1/2019 0:00,,
322,TX-00094,TX,insp,b,0,,zzzzzz,Schedule Home Inspection,,,0,ic,1,0,,,11/1/2019 0:00,,
324,TX-00096,TX,insp,btc,0,,zzzzzz,Schedule Home Inspection,,,0,ic,1,0,,,11/1/2019 0:00,,
301,TX-00073,TX,dis,stc,0,,aaaaaaa,Schedule Survey,,,0,dis-to-b,1,0,,,11/1/2019 0:00,,
304,TX-00076,TX,dis,dtc,0,,aaaaaaa,Schedule Survey,,,0,dis-to-b,1,0,,,11/1/2019 0:00,,
307,TX-00079,TX,dis,sa,0,,aaaaaaa,Schedule Survey,,,0,dis-to-b,1,0,,,11/1/2019 0:00,,
310,TX-00082,TX,dis,da,0,,aaaaaaa,Schedule Survey,,,0,dis-to-b,1,0,,,11/1/2019 0:00,,
385,TX-00157,TX,coe,btc,0,,bbbbbbb,Select Home Warranty,,,0,aoo,-10,0,,,11/1/2019 0:00,,
386,TX-00158,TX,coe,dtc,0,,bbbbbbb,Select Home Warranty,,,0,aoo,-10,0,,,11/1/2019 0:00,,
387,TX-00159,TX,coe,ba,0,,bbbbbbb,Select Home Warranty,,,0,aoo,-10,0,,,11/1/2019 0:00,,
388,TX-00160,TX,coe,da,0,,bbbbbbb,Select Home Warranty,,,0,aoo,-10,0,,,11/1/2019 0:00,,
343,TX-00115,TX,lf,b,0,,ccccccc,Select Lender,,,0,aoo,1,0,,,11/1/2019 0:00,,
295,TX-00067,TX,dis,sa,0,,ddddddd,Select Survey Pro,,,0,dis-to-b,1,0,,,11/1/2019 0:00,,
298,TX-00070,TX,dis,s,0,,ddddddd,Select Survey Pro,,,0,dis-to-b,1,0,,,11/1/2019 0:00,,
302,TX-00074,TX,dis,stc,0,,ddddddd,Select Survey Pro,,,0,dis-to-b,1,0,,,11/1/2019 0:00,,
305,TX-00077,TX,dis,dtc,0,,ddddddd,Select Survey Pro,,,0,dis-to-b,1,0,,,11/1/2019 0:00,,
308,TX-00080,TX,dis,sa,0,,ddddddd,Select Survey Pro,,,0,dis-to-b,1,0,,,11/1/2019 0:00,,
311,TX-00083,TX,dis,da,0,,ddddddd,Select Survey Pro,,,0,dis-to-b,1,0,,,11/1/2019 0:00,,
370,TX-00142,TX,oe,da,0,,eeeeeee,Select Title,,,0,oe,0,0,,,11/1/2019 0:00,,
371,TX-00143,TX,oe,sa,0,,eeeeeee,Select Title,,,0,oe,0,0,,,11/1/2019 0:00,,
372,TX-00144,TX,oe,dtc,0,,eeeeeee,Select Title,,,0,oe,0,0,,,11/1/2019 0:00,,
374,TX-00146,TX,oe,stc,0,,eeeeeee,Select Title,,,0,oe,0,0,,,11/1/2019 0:00,,
379,TX-00151,TX,coe,s,0,,fffffff,Seller Move-out,,,0,pp,0,0,,,11/1/2019 0:00,,
335,TX-00107,TX,insp,stc,0,,ggggggg,Seller Response to Repair Request,,,0,ic,-3,0,,,11/1/2019 0:00,,
336,TX-00108,TX,insp,sa,0,,ggggggg,Seller Response to Repair Request,,,0,ic,-3,0,,,11/1/2019 0:00,,
337,TX-00109,TX,insp,dtc,0,,ggggggg,Seller Response to Repair Request,,,0,ic,-3,0,,,11/1/2019 0:00,,
338,TX-00110,TX,insp,da,0,,ggggggg,Seller Response to Repair Request,,,0,ic,-3,0,,,11/1/2019 0:00,,
240,TX-00012,TX,coe,btc,0,,hhhhhhh,Send Closing Information Email,,,0,coe,-3,0,,,11/1/2019 0:00,,
241,TX-00013,TX,coe,stc,0,,hhhhhhh,Send Closing Information Email,,,0,coe,-3,0,,,11/1/2019 0:00,,
242,TX-00014,TX,coe,dtc,0,,hhhhhhh,Send Closing Information Email,,,0,coe,-3,0,,,11/1/2019 0:00,,
243,TX-00015,TX,coe,b,0,,hhhhhhh,Send Closing Information Email,,,0,coe,-3,0,,,11/1/2019 0:00,,
244,TX-00016,TX,coe,s,0,,hhhhhhh,Send Closing Information Email,,,0,coe,-3,0,,,11/1/2019 0:00,,
245,TX-00017,TX,coe,ba,0,,hhhhhhh,Send Closing Information Email,,,0,coe,-3,0,,,11/1/2019 0:00,,
246,TX-00018,TX,coe,sa,0,,hhhhhhh,Send Closing Information Email,,,0,coe,-3,0,,,11/1/2019 0:00,,
247,TX-00019,TX,coe,stc,0,,hhhhhhh,Send Closing Information Email,,,0,coe,-3,0,,,11/1/2019 0:00,,
369,TX-00141,TX,oe,stc,0,,iiiiiii,Send Wire Fraud and Checks Email,,,0,oe,0,0,,,11/1/2019 0:00,,
236,TX-00008,TX,coe,stc,0,,jjjjjjj,Submit CDA,,,0,coe,-3,0,,,11/1/2019 0:00,,
237,TX-00009,TX,coe,dtc,0,,jjjjjjj,Submit CDA,,,0,coe,-3,0,,,11/1/2019 0:00,,
238,TX-00010,TX,coe,sa,0,,jjjjjjj,Submit CDA,,,0,coe,-3,0,,,11/1/2019 0:00,,
239,TX-00011,TX,coe,da,0,,jjjjjjj,Submit CDA,,,0,coe,-3,0,,,11/1/2019 0:00,,
378,TX-00150,TX,insp,b,0,,kkkkkkk,Switch Utilities,,,0,pp,-3,0,,,11/1/2019 0:00,,
373,TX-00145,TX,oe,dtc,0,,lllllll,Title Introduction,,,0,oe,0,0,,,11/1/2019 0:00,,
375,TX-00147,TX,oe,stc,0,,lllllll,Title Introduction,,,0,oe,0,0,,,11/1/2019 0:00,,
230,TX-00002,TX,acpt,dtc,0,,mmmmmmmm,Upload Executed Purchase Agreement,,,0,aoo,0,0,,,11/1/2019 0:00,,
366,TX-00138,TX,oe,stc,0,,mmmmmmmm,Upload Executed Purchase Agreement,,,0,oe,0,0,,,11/1/2019 0:00,,
280,TX-00052,TX,dis,btc,0,,nnnnnnn,Upload HOA,[Properties.hasHOA] .eq. !true,,0,dis-to-b,0,0,,,11/1/2019 0:00,,
281,TX-00053,TX,dis,stc,0,,nnnnnnn,Upload HOA,[Properties.hasHOA] .eq. !true,,0,dis-to-b,0,0,,,11/1/2019 0:00,,
282,TX-00054,TX,dis,dtc,0,,nnnnnnn,Upload HOA,[Properties.hasHOA] .eq. !true,,0,dis-to-b,0,0,,,11/1/2019 0:00,,
283,TX-00055,TX,dis,ba,0,,nnnnnnn,Upload HOA,[Properties.hasHOA] .eq. !true,,0,dis-to-b,0,0,,,11/1/2019 0:00,,
284,TX-00056,TX,dis,sa,0,,nnnnnnn,Upload HOA,[Properties.hasHOA] .eq. !true,,0,dis-to-b,0,0,,,11/1/2019 0:00,,
285,TX-00057,TX,dis,da,0,,nnnnnnn,Upload HOA,[Properties.hasHOA] .eq. !true,,0,dis-to-b,0,0,,,11/1/2019 0:00,,
270,TX-00042,TX,dis,btc,0,,ooooooo,Upload IABS,,,0,dis-to-b,0,0,,,11/1/2019 0:00,,
271,TX-00043,TX,dis,stc,0,,ooooooo,Upload IABS,,,0,dis-to-b,0,0,,,11/1/2019 0:00,,
272,TX-00044,TX,dis,dtc,0,,ooooooo,Upload IABS,,,0,dis-to-b,0,0,,,11/1/2019 0:00,,
273,TX-00045,TX,dis,ba,0,,ooooooo,Upload IABS,,,0,dis-to-b,0,0,,,11/1/2019 0:00,,
274,TX-00046,TX,dis,sa,0,,ooooooo,Upload IABS,,,0,dis-to-b,0,0,,,11/1/2019 0:00,,
275,TX-00047,TX,dis,da,0,,ooooooo,Upload IABS,,,0,dis-to-b,0,0,,,11/1/2019 0:00,,
264,TX-00036,TX,dis,btc,0,,ppppppp,Upload MUD,,,0,dis-to-b,0,0,,,11/1/2019 0:00,,
265,TX-00037,TX,dis,stc,0,,ppppppp,Upload MUD,,,0,dis-to-b,0,0,,,11/1/2019 0:00,,
266,TX-00038,TX,dis,dtc,0,,ppppppp,Upload MUD,,,0,dis-to-b,0,0,,,11/1/2019 0:00,,
267,TX-00039,TX,dis,ba,0,,ppppppp,Upload MUD,,,0,dis-to-b,0,0,,,11/1/2019 0:00,,
268,TX-00040,TX,dis,sa,0,,ppppppp,Upload MUD,,,0,dis-to-b,0,0,,,11/1/2019 0:00,,
269,TX-00041,TX,dis,da,0,,ppppppp,Upload MUD,,,0,dis-to-b,0,0,,,11/1/2019 0:00,,
300,TX-00072,TX,dis,stc,0,,qqqqqqq,Upload Survey,,,0,dis-to-b,0,0,,,11/1/2019 0:00,,
303,TX-00075,TX,dis,dtc,0,,qqqqqqq,Upload Survey,,,0,dis-to-b,0,0,,,11/1/2019 0:00,,
306,TX-00078,TX,dis,sa,0,,qqqqqqq,Upload Survey,,,0,dis-to-b,0,0,,,11/1/2019 0:00,,
309,TX-00081,TX,dis,da,0,,qqqqqqq,Upload Survey,,,0,dis-to-b,0,0,,,11/1/2019 0:00,,
286,TX-00058,TX,dis,btc,0,,rrrrrrr,Upload T-47,,,0,dis-to-b,0,0,,,11/1/2019 0:00,,
287,TX-00059,TX,dis,stc,0,,rrrrrrr,Upload T-47,,,0,dis-to-b,0,0,,,11/1/2019 0:00,,
288,TX-00060,TX,dis,dtc,0,,rrrrrrr,Upload T-47,,,0,dis-to-b,0,0,,,11/1/2019 0:00,,
289,TX-00061,TX,dis,b,0,,rrrrrrr,Upload T-47,,,0,dis-to-b,0,0,,,11/1/2019 0:00,,
290,TX-00062,TX,dis,s,0,,rrrrrrr,Upload T-47,,,0,dis-to-b,0,0,,,11/1/2019 0:00,,
291,TX-00063,TX,dis,ba,0,,rrrrrrr,Upload T-47,,,0,dis-to-b,0,0,,,11/1/2019 0:00,,
292,TX-00064,TX,dis,sa,0,,rrrrrrr,Upload T-47,,,0,dis-to-b,0,0,,,11/1/2019 0:00,,
293,TX-00065,TX,dis,stc,0,,rrrrrrr,Upload T-47,,,0,dis-to-b,0,0,,,11/1/2019 0:00,,
260,TX-00032,TX,dis,ba,0,,sssssss,Upload Third Party Financing,,,0,dis-to-b,0,0,,,11/1/2019 0:00,,
261,TX-00033,TX,dis,dtc,0,,sssssss,Upload Third Party Financing,,,0,dis-to-b,0,0,,,11/1/2019 0:00,,
262,TX-00034,TX,dis,ba,0,,sssssss,Upload Third Party Financing,,,0,dis-to-b,0,0,,,11/1/2019 0:00,,
263,TX-00035,TX,dis,da,0,,sssssss,Upload Third Party Financing,,,0,dis-to-b,0,0,,,11/1/2019 0:00,,
276,TX-00048,TX,dis,btc,0,,ttttttt,Upload Wire Fraud,,,0,dis-to-b,0,0,,,11/1/2019 0:00,,
277,TX-00049,TX,dis,dtc,0,,ttttttt,Upload Wire Fraud,,,0,dis-to-b,0,0,,,11/1/2019 0:00,,
278,TX-00050,TX,dis,ba,0,,ttttttt,Upload Wire Fraud,,,0,dis-to-b,0,0,,,11/1/2019 0:00,,
279,TX-00051,TX,dis,da,0,,ttttttt,Upload Wire Fraud,,,0,dis-to-b,0,0,,,11/1/2019 0:00,,
327,TX-00099,TX,insp,btc,0,,uuuuuuu,Verify all utilities are on and accesible for inspections,[Properties.PropertyType] .ne. vacant,,0,ic,-5,0,,,11/1/2019 0:00,,
328,TX-00100,TX,insp,stc,0,,uuuuuuu,Verify all utilities are on and accesible for inspections,[Properties.PropertyType] .ne. vacant,,0,ic,-5,0,,,11/1/2019 0:00,,
329,TX-00101,TX,insp,dtc,0,,uuuuuuu,Verify all utilities are on and accesible for inspections,[Properties.PropertyType] .ne. vacant,,0,ic,-5,0,,,11/1/2019 0:00,,
330,TX-00102,TX,insp,sa,0,,uuuuuuu,Verify all utilities are on and accesible for inspections,[Properties.PropertyType] .ne. vacant,,0,ic,-5,0,,,11/1/2019 0:00,,
259,TX-00031,TX,coe,b,0,,vvvvvvv,Wire Closing Funds,,,0,coe,-3,0,,,11/1/2019 0:00,,
