Code,Element,KeyType,ReferenceValue,Title,QuickSummary,FullText,isActive
3a-00001,page,,dashboard,Offer To Close Dashboard,Displays a user's transactions,"The list of the user's transactions is based on the role the user has selected. The role can be found by reviewing the user setup dropdown in the the upper right corner of the page. The natural way to display the transactions is in descending date order, so the newest transaction is displayed first.",1
3a-00002,page,,ts.timeline,Transaction Summary: Timeline,Transaction's Timeline,The list of the user's To Do items and transaction milestones.,1
3a-00003,page,,ts.documents,Transaction Summary: Documents,Transaction's Documents,The list of the documents needed to complete the transaction.,1
3a-00004,page,,ts.disclosures,Transaction Summary: Disclosures,Transaction's Disclosures,The list of the disclosures the user needs to complete for the transaction,1
3a-00005,page,,ts.mail,Transaction Summary: Mail,Send and Email,The list of the emails the user can send through Offer To Close.,1
