Code,State,Category,Order,Description,IncludeWhen,Utilities,Timeline_Code,DateOffset,Notes,Status
TX-00128-01,TX,lf,1,Appraisal Report,,,lc,7,,converted
TX-00073-01,TX,dis,2,Schedule Survey,,,dis-to-b,1,,converted
TX-00111-01,TX,insp,3,Buyer Repair Request Final Acceptance,,,ic,-2,,converted
TX-00157-01,TX,coe,4,Select Home Warranty,,,aoo,-10,,converted
TX-00103-01,TX,insp,5,Buyer's Repair Request,,,ic,-4,,converted
TX-00115-01,TX,lf,6,Select Lender,,,aoo,1,,converted
TX-00148-01,TX,insp,7,Complete Final Walkthrough,,,pp,-1,,converted
TX-00067-01,TX,dis,8,Select Survey Pro,,,dis-to-b,1,,converted
TX-00119-01,TX,lf,9,Confirm Appraisal Has Been Scheduled,,,lc,1,,converted
TX-00118-01,TX,lf,10,Confirm Appraisal Has Been Scheduled,,,lc,1,,converted
TX-00142-01,TX,oe,11,Select Title,,,oe,0,,converted
TX-00136-01,TX,oe,12,Confirm Title Has Been Opened,,,oe,0,,converted
TX-00151-01,TX,coe,13,Seller Move-out,,,pp,0,,converted
TX-00095-01,TX,insp,14,Email Buyers That Inspection Has Been Scheduled,,,ic,2,,converted
TX-00107-01,TX,insp,15,Seller Response to Repair Request,,,ic,-3,,converted
TX-00124-01,TX,lf,16,Ensure lender orders the appraisal,,,lc,1,,converted
TX-00013-01,TX,coe,17,Send Closing Information Email,,,coe,-3,,converted
TX-00012-01,TX,coe,18,Send Closing Information Email,,,coe,-3,,converted
TX-00004-01,TX,coe,19,Ensure Title has CDA and Wiring Instructions,,,coe,-5,,converted
TX-00141-01,TX,oe,20,Send Wire Fraud and Checks Email,,,oe,0,,converted
TX-00001-01,TX,acpt,21,Executed Contract and Next Steps Email,,,aoo,0,,converted
TX-00135-01,TX,oe,21,Executed Contract and Next Steps Email,,,oe,0,,converted
TX-00130-01,TX,lf,23,Financing Deadline,,,lc,-4,,converted
TX-00150-01,TX,insp,25,Switch Utilities,,,pp,-3,,converted
TX-00132-01,TX,lf,26,Financing Deadline,,,lc,-4,,converted
TX-00088-01,TX,e/t,27,HOA Rules and Covenants Documents,[Properties.hasHOA] .eq. !true,,aoo,7,,converted
TX-00145-01,TX,oe,28,Title Introduction,,,oe,0,,converted
TX-00087-01,TX,e/t,29,HOA Transfer Package Information,[Properties.hasHOA] .eq. !true,,aoo,7,,converted
TX-00002-01,TX,acpt,30,Upload Executed Purchase Agreement,,,aoo,0,,converted
TX-00162-01,TX,coe,32,Home Warranty Invoice,,,aoo,-3,,converted
TX-00161-01,TX,coe,36,Home Warranty Invoice,,,aoo,-3,,converted
TX-00053-01,TX,dis,38,Upload HOA,[Properties.hasHOA] .eq. !true,,dis-to-b,0,,converted
TX-00052-01,TX,dis,42,Upload HOA,[Properties.hasHOA] .eq. !true,,dis-to-b,0,,converted
TX-00116-01,TX,lf,44,Introduction to Lender,,,aoo,0,,converted
TX-00043-01,TX,dis,46,Upload IABS,,,dis-to-b,0,,converted
TX-00042-01,TX,dis,50,Upload IABS,,,dis-to-b,0,,converted
TX-00085-01,TX,e/t,52,Make any requested payments by title,,,aoo,1,,converted
TX-00084-01,TX,e/t,54,Make any requested payments by title,,,aoo,1,,converted
TX-00037-01,TX,dis,56,Upload MUD,,,dis-to-b,0,,converted
TX-00036-01,TX,dis,60,Upload MUD,,,dis-to-b,0,,converted
TX-00091-01,TX,insp,62,Notify Buyer and Seller's Agent of Inspection Date and Time,,,ic,2,,converted
TX-00072-01,TX,dis,64,Upload Survey,,,dis-to-b,0,,converted
TX-00097-01,TX,insp,68,Notify Seller of Inspection,,,ic,2,,converted
TX-00059-01,TX,dis,69,Upload T-47,,,dis-to-b,0,,converted
TX-00058-01,TX,dis,74,Upload T-47,,,dis-to-b,0,,converted
TX-00133-01,TX,oe,77,Open Title,,,oe,0,,converted
TX-00033-01,TX,dis,79,Upload Third Party Financing,,,dis-to-b,0,,converted
TX-00032-01,TX,dis,81,Upload Third Party Financing,,,dis-to-b,0,,converted
TX-00086-01,TX,e/t,83,Request HOA Transfer Package,[Properties.hasHOA] .eq. !true,,aoo,5,,converted
TX-00048-01,TX,dis,84,Upload Wire Fraud,,,dis-to-b,0,,converted
TX-00134-01,TX,oe,88,Request Survey and T-47,,,oe,0,,converted
TX-00140-01,TX,oe,90,Request Survey and T-47,,,oe,0,,converted
TX-00100-01,TX,insp,91,Verify all utilities are on and accesible for inspections,[Properties.PropertyType] .ne. vacant,,ic,-5,,converted
TX-00099-01,TX,insp,94,Verify all utilities are on and accesible for inspections,[Properties.PropertyType] .ne. vacant,,ic,-5,,converted
TX-00028-01,TX,coe,95,Review Closing Documents,,,coe,-3,,converted
TX-00030-01,TX,coe,97,Review Closing Documents,,,coe,-3,,converted
TX-00031-01,TX,coe,98,Wire Closing Funds,,,coe,-3,,converted
TX-00068-01,TX,dis,99,Review Survey Report,,,dis-to-b,10,,converted
TX-00066-01,TX,dis,101,Review Survey Report,,,dis-to-b,10,,converted
TX-00021-01,TX,coe,103,Schedule Closing Date,,,coe,-15,,converted
TX-00020-01,TX,coe,108,Schedule Closing Date,,,coe,-15,,converted
TX-00153-01,TX,insp,111,Schedule Final Walkthrough,,,pp,-2,,converted
TX-00152-01,TX,insp,112,Schedule Final Walkthrough,,,pp,-2,,converted
TX-00092-01,TX,insp,116,Schedule Home Inspection,,,ic,1,,converted
